1;953;1
36;979;1
754;760;1
428;575;1
428;1121;1
1;64;2
331;339;1
445;455;1
200;224;1
1;270;2
136;157;1
905;932;5
429;979;1
326;910;13
53;376;1
53;1102;1
59;97;1
262;326;29
1;40;1
326;1026;1
754;755;1
192;200;1
428;566;2
28;979;1
180;634;1
862;942;2
26;406;5
445;448;1
17;57;2
1;263;6
239;403;1
4;321;1
26;313;1
27;992;2
30;544;1
1;176;1
321;636;5
31;953;1
638;659;1
345;789;1
1;33;1
57;60;1
102;326;29
428;557;2
968;970;2
109;496;1
557;979;1
361;774;10
1;496;3
951;979;1
1;280;2
53;1103;1
19;979;1
136;139;1
397;849;1
27;291;1
638;666;2
440;443;2
62;81;1
26;617;1
193;200;1
428;548;3
29;496;1
326;428;6
1019;1045;1
918;926;1
445;466;1
1;273;2
26;862;2
428;1054;3
410;423;1
723;874;1
26;186;1
638;669;1
26;903;1
53;106;1
428;547;1
54;56;1
26;483;1
298;396;1
862;979;2
638;639;1
53;742;1
53;1105;1
171;397;3
428;1045;1
299;874;1
428;500;1
57;486;1
263;428;5
11;437;1
638;644;1
1;52;5
862;1019;46
21;57;1
26;635;1
27;789;1
194;200;1
359;774;10
394;979;1
326;867;15
243;246;1
26;490;1
27;488;1
27;95;3
56;979;1
53;1114;1
136;160;1
410;425;1
57;495;1
789;806;1
187;201;1
27;310;1
11;426;1
638;655;1
397;408;1
328;428;2
1;602;1
364;410;1
1141;1143;1
17;397;3
57;278;2
331;365;1
27;496;2
26;501;1
62;90;1
636;976;1
34;62;1
42;46;1
27;520;1
604;1132;1
342;789;1
789;815;1
352;789;1
187;206;1
27;271;1
581;589;1
638;694;1
1;595;1
1;6;5
774;822;10
282;428;8
17;390;3
862;884;1
331;354;1
26;508;1
27;486;1
45;326;13
11;250;1
35;979;1
1;381;9
357;789;1
27;986;2
27;513;1
356;774;10
1;238;1
57;505;1
60;469;1
187;199;1
27;843;1
428;957;5
638;697;1
53;109;1
1;31;3
754;768;1
774;809;10
874;880;1
428;519;1
1021;1023;1
62;68;1
28;281;1
434;471;1
1;374;1
741;1137;1
27;979;1
27;518;1
428;1021;1
1;231;3
55;428;1
384;862;1
187;220;1
428;623;1
638;672;1
14;638;1
236;237;2
57;550;1
774;800;10
27;483;1
4;428;5
200;208;1
62;79;1
1066;1067;1
28;272;1
109;979;1
325;397;3
1;248;1
789;826;1
187;213;1
26;567;1
298;304;4
581;1005;1
11;470;1
638;683;1
326;1003;1
15;390;2
1;1011;1
1;105;6
57;116;1
57;559;1
774;795;10
443;444;2
200;215;1
57;229;1
620;862;6
1;320;1
164;906;1
326;608;29
27;862;8
638;722;1
1;1012;1
1;98;1
57;560;1
774;786;10
24;445;1
743;748;1
28;247;1
413;789;1
200;222;1
1;296;2
119;120;1
1;544;36
27;371;1
410;415;1
893;1037;1
1;519;2
58;397;2
774;890;4
28;95;1
638;725;1
397;430;2
57;569;1
774;789;11
26;101;1
12;16;1
1;894;2
1;289;1
354;774;10
26;475;2
27;475;2
57;429;2
114;134;1
326;1029;1
1079;1081;1
53;404;1
612;979;1
27;428;15
298;301;4
11;54;1
638;732;1
1;393;2
1;124;1
774;780;10
862;1003;3
200;204;1
1;314;1
183;619;1
25;428;6
321;954;1
1;736;1
1;171;9
27;321;2
26;523;1
355;774;10
638;711;1
71;596;2
862;954;5
774;775;10
171;862;1
636;937;2
1107;1136;1
1;840;2
863;979;1
136;144;1
321;1054;2
864;979;1
1;172;6
333;410;1
27;326;29
356;410;1
1;618;1
754;766;1
439;440;1
26;530;1
27;247;1
638;718;1
36;623;1
331;349;1
27;504;1
171;282;1
445;461;1
286;979;1
15;16;1
136;151;1
180;862;16
552;1022;1
286;326;30
56;445;1
754;761;1
428;568;1
331;338;1
26;979;1
53;124;1
445;454;1
1;269;4
136;158;1
905;939;1
347;774;10
1107;1108;1
94;397;2
59;96;3
321;634;1
584;619;2
53;61;1
57;58;5
774;857;6
29;36;2
57;171;3
862;943;2
263;636;1
1;262;5
574;979;1
862;1072;12
27;995;2
905;940;1
29;326;25
1;183;2
53;108;1
25;57;3
638;656;1
180;979;1
1;637;1
1;32;15
27;491;1
26;623;1
428;558;1
968;971;2
1019;1054;1
908;976;1
262;862;1
548;862;1
1;287;2
112;113;1
136;140;1
907;937;1
397;848;1
57;475;2
105;862;1
27;290;1
11;390;2
638;667;1
1;57;4
19;326;29
27;774;10
428;549;1
326;429;26
1;487;5
918;927;1
298;386;3
445;465;1
326;980;4
684;937;1
1;272;2
53;1111;1
42;50;1
410;420;1
434;542;1
95;636;1
95;390;2
638;642;1
548;622;1
280;428;1
26;480;1
53;741;1
53;1104;1
428;1046;1
905;967;1
92;93;1
57;485;1
789;796;1
349;789;1
11;436;1
581;632;1
638;645;1
1019;1044;1
1;576;1
1;11;5
321;957;1
862;1016;15
26;53;3
304;874;1
326;864;15
366;774;10
27;497;1
26;491;1
62;80;1
27;94;3
119;129;1
28;269;1
321;1062;1
30;57;4
252;979;1
53;1113;1
20;428;3
403;979;1
26;282;4
136;161;1
266;403;1
303;874;1
109;252;1
187;200;2
93;1117;3
638;652;1
1;601;1
57;95;5
1141;1142;1
636;1062;1
331;364;1
918;928;1
354;410;1
62;91;1
196;200;1
1;379;1
57;390;4
1103;1119;1
42;47;1
27;523;1
1;175;1
187;193;1
388;905;1
27;270;1
428;634;5
581;588;1
638;695;1
397;400;2
1;1007;2
1;594;1
1;5;13
862;1002;1
544;636;1
871;872;1
105;428;1
53;591;1
331;357;1
26;509;1
27;505;1
325;410;1
1;380;1
27;989;2
1132;1135;1
606;979;1
732;907;1
2;862;1
187;198;1
188;200;1
27;842;1
638;702;1
326;369;2
1;427;1
1;30;63
348;774;10
754;769;1
774;814;10
27;480;1
27;180;1
874;881;1
1021;1022;1
27;510;1
28;282;1
326;913;13
197;200;1
364;789;1
1;373;1
956;1022;1
544;910;1
1;230;1
53;1116;1
789;816;1
187;223;1
27;835;1
11;13;1
638;673;1
1;428;9
1;23;1
57;549;1
774;801;10
200;209;1
27;503;1
28;273;1
6;34;1
31;62;3
789;825;1
187;212;1
298;305;1
581;1004;1
638;680;1
1079;1090;1
326;544;24
1;1010;1
1;104;5
257;979;1
57;558;1
774;792;10
282;390;2
484;862;5
30;326;29
114;167;1
26;390;5
36;105;2
1;327;1
385;862;3
1;873;1
326;609;29
789;834;1
11;59;1
638;723;1
53;71;1
57;567;1
774;787;10
95;171;1
26;27;12
743;751;1
200;223;1
27;502;1
321;1034;1
119;123;1
346;789;1
406;428;3
410;412;1
26;518;1
638;730;1
397;429;2
57;568;1
774;778;10
26;98;1
1;893;1
1;288;4
26;472;1
27;474;1
905;960;1
57;428;8
114;135;1
39;862;20
1079;1080;1
53;403;1
26;513;1
376;741;1
638;733;1
36;634;1
1;392;1
1;115;1
862;944;2
774;781;10
26;109;1
27;105;1
200;205;1
1;170;2
407;1093;1
321;620;1
1019;1052;1
1;219;2
385;623;1
26;520;1
486;1019;2
638;708;1
1;385;2
1;116;3
62;66;1
428;976;1
8;1138;1
136;145;1
905;952;1
907;908;1
774;820;10
1;617;2
1;220;1
754;767;1
439;443;2
26;531;1
27;246;1
390;430;2
428;911;1
638;719;1
1;983;2
36;37;1
331;348;1
428;1062;3
27;103;1
445;460;1
1;267;9
627;862;2
136;152;1
1;753;1
428;538;1
754;758;1
957;1022;1
428;569;1
1;403;3
914;979;1
419;774;10
331;341;1
26;976;1
26;397;6
445;453;1
1022;1036;1
1;268;3
1006;1107;1
136;159;1
194;397;1
487;1093;2
53;326;29
636;956;1
262;1063;1
344;774;10
62;83;1
428;560;1
1;404;1
1;95;17
1019;1048;1
176;862;5
1;261;2
937;976;1
26;263;1
544;862;73
27;994;2
397;854;1
59;1056;1
1;182;1
638;657;1
400;410;1
53;496;3
1;39;4
60;428;1
59;1091;2
428;559;1
968;972;2
57;105;2
53;295;1
1;286;5
136;141;1
321;956;1
263;321;1
397;847;1
905;964;1
626;1009;1
282;1019;1
638;664;1
1;629;1
330;862;17
596;597;2
29;53;1
649;874;1
57;623;1
918;924;2
26;486;2
298;387;3
445;464;2
53;288;1
1;279;2
53;1110;1
42;51;1
1;885;1
27;397;2
410;421;1
342;774;10
187;189;1
390;937;1
638;643;1
326;614;29
57;519;1
4;26;1
26;901;1
27;171;1
390;397;5
893;900;1
918;919;2
62;69;1
26;481;1
428;684;2
53;1016;1
331;789;1
428;1047;1
390;638;1
905;966;1
53;1006;1
282;636;1
638;650;1
417;774;10
1;10;3
326;865;15
26;488;1
27;490;1
119;128;1
28;270;1
862;1069;1
124;1132;1
53;1112;1
136;162;1
905;975;1
357;774;10
152;1098;1
53;892;1
789;804;1
187;203;1
428;636;14
11;428;4
638;653;1
1;3;10
57;94;1
862;883;2
874;875;1
26;499;1
62;88;1
17;28;1
1;378;1
57;389;2
42;44;1
27;522;1
428;484;5
53;428;1
326;634;24
789;813;1
187;192;1
862;1058;1
581;587;1
638;692;1
397;399;2
1;1006;2
1;593;1
1;4;1
57;538;1
59;327;1
27;481;1
331;356;1
26;506;1
62;67;1
1;257;1
487;1011;1
1;371;2
27;988;2
27;515;1
913;979;1
789;822;1
187;217;1
27;243;2
29;428;2
638;703;1
35;326;29
53;107;1
1;29;15
57;104;1
57;547;1
774;815;10
26;902;1
93;117;1
62;74;2
27;36;8
28;283;2
862;980;1
1;372;1
438;638;1
124;540;1
1;229;1
789;831;1
187;222;1
11;12;1
638;678;1
53;116;1
1;22;3
57;548;1
774;806;10
195;200;1
59;433;1
200;210;1
398;789;1
62;77;1
28;274;1
1124;1125;2
1011;1093;1
26;383;1
326;507;13
27;529;1
909;979;1
613;979;1
187;215;1
232;428;1
638;681;1
348;789;1
57;557;1
774;793;10
1038;1076;5
200;217;1
62;76;1
119;125;1
1;326;35
26;326;29
30;428;3
1;247;3
789;833;1
355;789;1
638;720;1
57;566;1
774;784;20
743;750;1
191;200;1
1;891;1
57;313;3
39;979;1
26;478;1
119;122;1
94;428;2
1011;1107;1
26;321;3
410;413;1
57;575;1
271;326;2
26;519;1
638;731;1
397;428;5
40;887;2
347;789;1
774;779;10
30;252;1
1;892;1
1;295;4
26;473;1
27;477;1
566;1019;2
114;132;1
1076;1077;1
1079;1083;1
1;193;2
26;526;1
298;299;4
636;1054;3
638;706;1
862;945;2
200;206;1
937;1019;1
189;200;1
905;950;2
1;742;2
1;169;1
30;385;1
26;521;1
638;709;1
1;384;3
428;1061;3
783;789;1
778;789;1
353;774;10
136;146;1
27;30;3
905;959;3
193;893;3
25;36;5
428;1017;1
1;616;1
754;764;1
439;442;1
26;528;1
6;401;1
390;431;2
781;789;1
1132;1134;1
638;716;1
1;982;2
682;874;1
331;351;1
27;102;1
445;459;1
326;866;15
109;403;1
1;266;2
171;429;1
136;153;1
862;1071;1
1117;1118;1
976;978;1
1;752;1
95;428;6
200;216;1
326;839;15
754;759;1
62;82;1
1126;1127;1
27;636;1
326;771;13
609;979;1
331;340;1
445;452;1
1;856;1
326;914;13
326;557;24
56;326;29
326;1025;1
59;1101;2
428;561;1
268;862;3
893;1016;1
1;94;22
862;941;2
403;405;1
336;774;10
351;774;10
1019;1051;1
1;260;2
60;591;1
428;1043;1
428;554;1
1139;1140;1
397;853;1
1;181;1
117;118;1
638;662;1
381;862;31
1;627;1
1;38;7
428;552;1
968;973;2
918;922;2
1;285;2
428;1122;1
136;142;1
397;846;1
27;292;1
638;665;1
344;789;1
1;897;1
1;628;1
1;63;2
596;598;4
100;104;1
428;551;1
918;925;2
27;511;1
26;487;1
1;278;2
53;1109;1
42;48;1
26;278;2
428;1049;1
410;418;1
187;188;1
484;636;1
638;640;1
4;27;1
636;1060;1
893;899;1
976;977;1
25;496;1
26;494;1
298;395;1
1;367;1
1006;1132;1
905;965;1
1063;1064;1
576;577;1
789;794;1
544;979;1
28;105;2
11;438;2
638;651;1
1;9;1
331;361;1
26;489;1
27;493;1
28;271;1
252;288;1
26;280;1
136;163;1
17;171;1
789;803;1
187;202;1
25;27;3
638;690;1
1;916;1
1;2;7
774;818;10
442;443;2
62;85;1
26;58;5
229;428;1
428;524;1
1;773;1
26;496;2
27;482;1
236;533;1
1;377;1
42;45;1
27;525;1
428;485;1
180;326;29
1;234;1
187;195;1
25;28;1
11;17;1
581;586;1
638;693;1
397;398;3
1;27;43
774;821;10
973;1126;1
428;523;1
58;171;1
331;359;1
26;507;1
27;507;1
823;862;3
57;397;5
428;1034;3
27;991;2
27;514;1
1;227;1
789;821;1
225;1132;1
187;216;1
26;544;1
638;700;1
309;874;1
1;28;10
57;546;1
774;812;10
1;507;2
62;75;1
615;979;1
28;276;1
346;774;10
57;406;1
59;61;4
862;1074;8
428;475;1
124;541;2
1;228;4
789;830;1
187;209;1
298;308;4
27;837;1
428;1123;1
11;15;1
638;679;1
1;21;20
57;555;1
774;807;10
28;252;2
109;862;3
512;1126;1
200;211;1
27;500;1
28;275;1
862;1065;1
27;528;2
1;253;1
58;390;2
187;214;1
1;1001;2
638;686;1
1;1008;2
1;110;2
57;556;1
774;798;10
26;30;3
200;218;1
57;311;1
27;53;3
119;124;1
905;962;1
29;623;1
55;918;2
1;515;1
326;615;29
789;832;1
638;721;1
1;103;1
57;565;1
774;785;10
26;428;19
743;745;1
15;578;1
862;1059;1
331;332;1
57;312;2
26;479;1
393;862;1
428;894;2
129;1131;1
31;979;1
1079;1085;1
385;1016;1
326;606;29
774;889;4
26;516;1
354;874;1
638;728;1
904;905;1
57;574;1
774;776;10
445;447;1
93;1132;1
1;294;2
27;476;1
53;220;1
339;789;1
114;133;1
1079;1082;1
26;527;1
636;1055;1
638;707;1
419;789;1
1016;1132;1
200;207;1
1;319;2
59;225;1
741;1097;1
905;949;1
634;636;1
1;741;6
1;168;2
59;427;1
22;326;14
28;57;1
1;931;1
439;444;1
1126;1130;1
8;53;1
190;200;1
1132;1133;1
638;714;1
1;391;1
331;345;1
584;855;1
252;496;1
1103;1120;1
136;147;1
282;862;9
905;958;2
869;979;1
94;390;2
428;429;1
428;1018;1
345;774;10
1;623;1
754;765;2
1022;1034;1
26;529;1
390;428;5
428;572;1
638;717;1
1;981;1
94;623;2
331;350;1
26;384;1
387;874;1
862;1054;33
445;458;1
1022;1035;1
1;265;1
59;255;1
26;838;4
171;428;2
136;154;1
905;935;2
1;186;5
724;874;1
30;496;1
976;1132;2
58;428;1
614;979;1
59;1079;2
27;193;1
428;571;1
94;171;1
331;343;1
445;451;1
636;954;1
912;979;1
1;258;6
301;874;1
905;936;2
619;905;21
13;16;1
231;1132;1
1;179;1
25;53;2
95;321;1
164;905;2
326;1030;1
774;860;2
59;1100;1
1;824;1
428;562;1
1;93;3
403;404;1
1019;1050;2
200;235;1
1;283;1
26;840;1
428;1060;3
27;996;2
397;852;1
1;180;3
26;180;1
638;663;1
1;626;3
308;874;1
438;937;1
1;886;1
428;553;1
16;17;1
968;974;1
53;180;1
918;923;1
27;508;1
862;1061;2
326;954;1
1;284;5
136;143;1
397;845;1
636;862;22
325;331;1
742;1132;1
638;670;1
911;979;1
1;896;1
93;1103;2
596;599;2
620;636;1
727;874;1
428;544;3
1;484;1
26;484;1
1;277;2
53;1108;2
42;49;1
26;279;2
428;1050;1
905;963;1
410;419;1
14;187;1
31;53;1
187;191;1
638;641;1
862;1073;1
1;55;5
25;326;14
26;636;4
428;543;1
893;898;1
340;774;10
874;877;1
243;245;1
26;495;1
30;53;1
1;366;2
27;574;1
356;789;1
789;793;1
581;583;1
638;648;1
109;326;29
1;8;17
57;526;1
27;495;1
1;771;1
54;55;1
321;1061;1
862;910;36
331;360;1
26;502;1
27;492;1
544;1019;1
119;130;1
26;498;1
171;390;3
136;164;1
262;979;1
27;567;1
428;495;1
887;888;2
789;802;1
187;205;1
25;26;2
11;27;4
638;691;1
774;819;10
486;636;1
1;772;5
398;774;10
57;282;5
331;353;1
26;497;1
27;485;1
107;1132;1
17;18;1
1;376;8
27;985;2
27;524;1
428;486;2
1;233;2
57;500;1
187;194;1
11;16;1
581;585;2
638;698;1
326;381;24
1;26;26
774;810;10
34;1132;1
331;358;1
26;504;1
27;506;1
924;1099;1
34;53;1
53;765;1
27;990;2
27;517;1
584;592;1
1;226;1
789;820;1
866;979;1
187;219;1
868;979;1
27;280;1
428;620;6
712;874;1
638;701;1
53;105;1
1;19;24
57;545;1
774;813;10
24;428;4
413;774;10
326;840;15
862;867;38
62;78;1
27;499;1
321;1060;1
28;277;1
1031;1041;1
1;330;2
59;60;1
605;979;1
608;979;1
1;251;6
789;829;1
187;208;1
298;309;4
338;774;10
27;836;1
11;14;1
638;676;1
1;20;15
241;242;3
774;804;10
200;212;1
36;109;3
407;428;1
754;756;1
36;252;3
428;505;1
26;381;1
104;1141;1
27;531;1
30;636;1
1;252;11
27;278;1
638;687;1
14;16;1
1;1015;1
1;109;25
57;563;1
774;799;10
874;878;1
200;219;1
331;333;1
57;310;2
121;1131;1
326;909;13
119;127;1
339;774;10
910;979;1
364;774;10
1;324;1
1;249;1
326;612;29
26;247;1
636;1034;1
638;726;1
839;979;1
1;102;1
57;564;1
774;790;10
743;744;1
1019;1123;1
31;326;29
26;476;1
28;36;3
410;411;1
1079;1084;1
381;979;1
326;607;29
26;517;1
298;302;4
638;729;1
53;1011;1
57;573;1
774;777;10
26;1019;2
445;446;1
579;893;5
200;201;1
1;293;1
27;479;1
905;947;1
1;739;3
326;951;6
321;484;1
1;937;1
53;1008;1
26;524;1
638;704;1
53;1020;1
264;979;1
862;1042;4
1;318;1
905;948;1
326;574;30
26;740;1
27;325;3
581;631;1
1;930;1
280;326;5
193;593;5
428;915;3
638;715;1
1064;1075;1
1;979;1
36;57;7
236;862;2
331;344;1
351;789;1
36;180;1
1107;1115;1
136;148;1
26;512;1
1076;1078;1
428;1019;10
1;209;2
754;762;1
390;429;2
428;573;1
331;337;1
26;385;1
445;457;1
754;770;1
623;862;2
1;264;2
865;979;1
59;254;1
171;431;1
136;155;1
905;934;6
28;326;29
1;185;3
104;532;1
581;633;1
754;757;1
774;858;6
636;1061;1
428;564;1
53;983;1
331;342;1
445;450;1
1;862;22
236;534;1
534;596;2
487;1094;1
1;178;2
441;443;1
53;57;1
1;35;17
388;741;1
862;1070;1
428;563;1
329;862;2
331;335;1
62;70;1
1019;1053;1
862;1038;2
1;282;4
24;26;2
136;137;1
27;999;2
264;403;1
397;851;1
396;874;1
350;774;10
349;774;10
546;862;2
28;30;2
104;428;1
638;660;1
1;910;1
1;625;2
1;36;49
6;376;1
29;57;1
16;18;1
918;920;2
53;121;1
445;468;1
1;275;2
979;980;1
397;844;1
57;479;1
1093;1095;1
638;671;1
93;1102;1
1;61;2
428;545;1
74;326;29
26;485;1
26;94;3
1;276;2
53;1107;1
27;568;1
410;416;1
56;953;1
789;799;1
187;190;1
1;870;1
11;435;1
638;646;1
1;579;3
62;87;1
773;1132;1
59;602;1
30;380;1
21;428;1
59;873;3
243;244;1
26;492;1
937;968;2
404;862;3
634;862;8
236;316;1
636;1051;1
321;428;7
581;582;2
638;649;1
1;580;1
862;1020;8
326;403;29
326;868;15
331;363;1
26;503;1
62;84;1
371;862;9
136;165;1
979;1003;1
27;566;1
907;976;1
512;918;1
789;801;1
187;204;1
11;26;6
638;688;2
326;379;29
774;816;10
428;526;1
340;789;1
624;862;8
326;394;29
326;863;15
331;352;1
22;36;1
26;510;1
30;36;5
1;383;1
42;43;1
6;61;1
27;984;3
27;527;1
428;487;1
1;232;2
187;197;1
338;789;1
27;841;1
581;584;1
638;699;1
326;370;16
1;25;14
57;543;1
774;811;10
874;882;1
94;979;1
27;498;1
26;505;1
27;509;1
1;368;1
313;428;1
27;516;1
1;225;8
94;326;29
187;218;1
428;954;7
638;674;1
507;979;1
53;104;1
57;109;1
57;544;1
774;802;10
264;326;29
53;891;1
93;114;3
62;73;1
27;57;5
28;278;1
1;329;1
428;469;1
1;567;7
1;250;1
789;828;1
187;211;1
298;306;1
27;839;1
638;677;1
363;789;1
18;638;1
57;553;1
774;805;10
741;862;2
171;636;2
15;638;1
200;213;1
326;862;13
252;326;29
1031;1033;1
1;322;2
937;938;1
4;636;1
27;530;1
326;610;14
638;684;1
15;397;2
1;1014;1
1;108;5
57;562;1
774;796;10
496;515;1
743;754;1
874;879;1
840;979;1
200;220;1
57;232;1
59;220;1
119;126;1
53;284;1
326;613;29
535;537;1
24;862;6
104;491;1
1079;1089;1
638;727;1
36;624;1
1;101;2
57;571;1
774;791;10
26;103;1
743;747;1
282;397;2
109;428;3
1;107;3
26;477;2
27;473;1
27;627;1
94;862;12
30;623;1
1079;1087;1
58;406;1
26;514;1
298;303;4
638;734;1
57;572;1
774;782;10
27;997;2
200;202;1
27;478;1
45;979;1
32;893;12
14;200;1
1;738;1
56;62;3
114;131;1
74;979;1
1111;1117;1
53;225;1
26;525;1
27;803;2
620;623;1
26;105;3
1103;1125;3
102;979;1
1;636;10
1;174;1
581;630;1
1;929;1
236;259;1
1126;1128;1
26;193;1
27;245;1
638;712;1
331;347;1
638;735;1
27;98;1
445;463;1
326;979;5
354;789;1
26;310;2
136;149;1
36;53;4
326;566;1
1;621;1
754;763;1
428;574;1
30;979;1
331;336;1
445;456;1
709;907;1
636;957;1
361;789;1
1;271;2
171;430;1
136;156;1
27;1000;2
905;933;1
1;184;1
458;862;5
20;57;1
350;789;1
11;406;1
32;1009;1
15;907;1
1;41;3
774;859;6
200;203;1
428;565;1
11;604;2
62;65;1
445;449;1
428;979;1
1;861;1
1;256;3
584;905;1
353;789;1
27;993;2
326;912;13
326;911;13
1;177;1
59;432;1
53;979;1
26;36;12
638;658;1
1;34;4
326;1028;1
428;556;1
968;969;1
331;334;1
634;979;1
27;1019;2
862;1039;11
1;281;2
8;1131;1
136;138;1
27;998;2
36;862;20
397;850;1
57;469;1
282;623;1
53;929;1
638;661;1
1;624;1
1;59;1
862;1068;2
862;1057;5
428;555;1
638;705;1
918;921;1
116;428;1
25;862;8
445;467;1
1;274;2
53;1097;1
410;422;1
35;111;1
638;668;1
1;60;2
62;86;1
740;862;4
428;546;1
1;823;1
26;482;1
26;95;1
390;907;1
30;862;70
53;1106;1
428;1044;1
905;961;1
410;417;1
27;634;1
57;487;1
352;774;10
95;397;2
28;109;2
11;434;1
638;647;1
1;53;21
57;523;1
596;600;2
379;979;1
36;428;8
26;493;1
27;489;1
428;862;13
53;1115;1
607;979;1
39;326;1
27;390;4
428;550;1
410;424;1
236;317;1
1093;1096;1
638;654;2
397;409;2
1;603;1
57;524;1
326;869;15
331;362;1
26;500;1
27;494;1
1045;1047;1
1103;1117;1
257;326;31
3;403;1
136;166;1
27;521;1
789;800;1
187;207;1
581;590;1
638;689;1
109;544;1
1;7;7
438;907;1
774;817;10
26;57;4
57;280;2
331;355;1
62;72;1
26;511;1
27;487;1
711;874;1
1;382;1
326;1027;1
26;366;1
27;987;2
27;526;1
1076;1144;2
11;328;1
1;239;2
789;809;1
187;196;1
26;548;1
27;840;1
11;18;1
428;956;5
638;696;1
180;496;1
937;1050;1
1;24;6
774;808;10
428;1048;1
62;71;1
428;567;1
28;280;1
198;200;1
1;375;2
55;60;1
27;519;1
428;479;1
55;917;1
30;624;1
789;818;1
187;221;1
59;1024;1
27;282;2
428;955;1
638;675;1
1;17;4
57;551;1
774;803;10
1019;1047;1
1019;1122;1
116;1132;1
26;788;1
27;501;1
445;862;1
27;623;1
53;251;1
36;326;29
789;827;1
187;210;1
298;307;4
27;275;1
27;838;1
105;496;1
638;682;1
1079;1088;1
396;638;1
1;106;10
57;552;1
774;794;10
115;116;1
62;89;1
21;862;2
200;214;1
24;623;1
636;1019;7
199;200;1
1;321;8
406;407;1
124;535;1
326;611;14
11;57;7
428;937;1
638;685;1
1;1013;2
1;99;1
57;561;1
774;797;10
26;29;2
743;749;1
874;876;1
200;221;1
1;297;1
119;121;1
57;554;1
410;414;1
535;536;1
187;224;1
638;724;1
397;431;2
976;1019;1
1;100;2
57;570;1
774;788;10
867;979;1
743;746;1
1;895;1
26;474;1
27;472;1
15;171;1
242;415;1
1079;1086;1
1;537;1
326;605;29
534;539;1
26;515;1
298;300;1
178;403;1
1;394;2
1;125;1
862;946;2
774;783;20
302;874;1
48;581;1
53;252;2
1;315;1
57;326;14
428;1092;1
1;737;1
95;445;1
104;1132;1
321;1019;1
26;522;1
28;172;1
638;710;1
1031;1032;2
19;403;1
1;323;1
862;1040;1
1103;1124;3
95;862;59
27;29;2
53;374;1
1;173;1
439;441;1
1126;1129;1
6;402;1
638;713;1
53;93;1
1;388;11
36;496;2
331;346;1
336;789;1
27;101;1
445;462;1
464;1038;2
15;17;1
771;979;1
136;150;1
