1;34;1
1;17;1
49;63;1
40;41;1
1;6;1
83;86;2
13;83;1
1;11;1
4;93;1
46;48;4
76;77;1
1;28;1
49;58;1
1;31;1
26;83;1
83;85;1
46;75;1
4;5;1
27;83;1
97;98;1
68;70;1
60;62;1
1;12;1
1;38;1
94;95;1
1;21;1
24;83;1
49;51;1
68;72;1
1;26;1
83;90;1
1;15;1
60;61;2
46;52;2
1;33;1
57;60;1
65;66;2
30;46;2
1;16;1
49;62;1
40;42;1
1;5;2
83;89;1
1;10;1
49;64;1
76;78;1
31;83;1
58;60;1
25;76;1
1;19;1
49;57;1
83;84;1
14;40;1
28;83;1
102;104;4
30;83;1
59;60;1
60;63;1
1;3;1
42;43;2
1;39;1
1;37;1
46;47;3
1;20;1
99;101;1
49;50;1
68;73;1
1;25;1
1;14;1
42;44;1
46;53;2
4;24;1
1;32;1
81;82;1
4;38;1
1;23;1
49;61;1
40;43;3
43;67;1
1;4;1
83;88;1
1;9;1
102;103;2
68;71;1
46;54;2
1;35;1
1;18;1
49;56;1
1;7;1
83;87;1
79;80;1
43;83;1
46;60;1
4;92;1
56;60;1
104;105;2
1;29;1
49;59;1
1;2;1
1;36;1
27;99;1
35;83;1
42;65;3
99;100;1
68;74;1
1;24;1
68;69;1
1;13;1
42;45;1
25;96;1
60;64;1
42;66;3
48;49;1
1;22;1
49;60;5
1;30;1
1;27;1
83;91;1
1;8;1
46;55;2
