105;333;1
76;1934;1
259;1118;2
2746;3042;1
530;531;3
200;550;1
477;1030;1
2507;2807;1
873;877;1
619;735;1
221;535;3
1126;1532;1
1270;2854;1
207;548;1
1012;1234;1
1126;3197;1
115;1233;1
559;1660;2
218;714;3
115;3370;1
116;1553;2
853;2176;1
515;855;1
735;816;18
270;1251;8
879;1521;1
101;2961;3
221;1952;1
14;1175;1
428;3670;1
330;1915;2
28;1254;1
749;3043;1
28;2654;1
3788;3899;4
735;1129;2
20;770;2
221;3999;1
1805;1925;1
176;3465;2
855;1964;1
1805;3626;1
200;1914;2
132;747;1
154;635;1
1162;3727;1
154;2950;1
735;1581;4
1692;3706;1
1536;2177;1
18;291;1
703;2404;1
132;303;1
115;1649;1
490;4300;1
100;251;2
160;176;2
218;362;2
1805;3199;1
3371;4166;1
28;3723;2
51;183;2
515;516;1
130;570;1
236;1973;1
296;334;2
115;1852;1
50;468;2
115;3334;2
42;1648;3
197;276;1
597;3594;1
557;1588;3
635;1664;1
28;956;1
236;333;2
1162;3085;1
221;2763;2
260;749;2
286;2225;1
16;2901;1
779;2875;1
270;1134;3
3788;4586;1
26;1682;3
97;98;2
212;1721;2
1324;4128;2
300;2669;1
20;3356;1
247;3181;2
1013;3182;1
1805;3948;1
115;182;1
513;2990;11
841;2665;1
270;827;6
5;374;1
99;2675;1
74;3168;1
20;917;1
139;1629;9
33;262;9
428;2174;1
357;2848;2
644;1826;2
55;749;6
2459;2460;1
6;51;29
212;1260;1
644;4201;1
994;2782;1
312;314;16
1013;3667;2
256;257;6
18;1696;1
259;994;1
316;2836;1
1289;3870;1
72;1220;9
484;1361;7
2299;4357;1
270;4404;1
171;1462;6
3371;4001;1
28;225;1
3179;4202;1
735;1019;1
236;3691;1
879;4420;1
1013;2906;2
23;156;1
640;1388;1
300;3167;2
18;2856;2
1506;2309;3
124;1054;1
735;1394;5
236;704;2
200;1526;1
81;513;1
68;2157;1
74;480;1
352;4072;1
607;608;1
2256;2257;1
749;783;1
42;783;1
139;1691;2
28;1018;2
3788;3907;2
272;556;3
330;3838;1
1805;1997;2
2785;4535;1
559;2367;1
1162;2456;1
221;1452;1
18;1107;1
699;853;1
141;1000;1
23;1848;1
581;1278;1
129;529;2
42;466;4
1185;1628;1
18;363;3
3371;3422;1
3345;3903;1
236;1759;1
99;1801;1
2435;2438;2
618;1047;3
89;2403;1
853;2076;1
1071;2934;1
1462;3741;1
513;3950;1
330;1005;1
1536;1549;1
259;1801;1
20;1453;3
130;2640;1
1908;2614;1
557;4260;1
118;4527;1
40;41;9
3285;3529;1
42;1755;1
2848;4279;1
879;881;1
4052;4053;1
115;4389;1
62;4273;2
3788;4579;1
330;417;1
298;1367;1
2603;3660;4
42;4360;1
300;3425;1
775;888;3
1534;3985;1
853;4588;3
95;3285;1
28;1330;1
97;3857;2
4123;4196;2
948;3878;1
2992;2994;1
434;3695;1
139;3913;3
42;2168;1
44;1566;1
328;749;1
2913;3758;1
161;2703;1
84;3114;1
1052;1113;2
1556;1805;2
745;1805;2
891;3611;4
23;4234;1
164;1105;1
236;3160;1
28;1940;3
173;770;5
97;663;1
703;2844;1
4069;4448;1
665;2446;1
1318;3025;1
417;1185;1
632;1409;1
3996;4108;1
3371;3846;1
33;1718;5
841;2096;1
1020;3512;1
153;810;1
42;166;1
1248;2389;1
598;600;1
52;1112;1
256;702;1
1324;4157;1
716;4078;1
28;1136;3
4597;4598;2
227;855;6
665;2445;1
36;311;1
958;2570;3
298;1498;1
901;902;1
16;1334;1
36;1557;3
28;3153;1
1241;2500;1
4206;4546;1
420;1071;1
1678;3000;1
1710;3910;1
28;1588;1
735;4151;3
530;850;1
936;1029;1
1012;1037;1
97;3867;3
1148;3875;1
735;1580;2
1290;3806;1
352;3982;1
277;1473;2
2126;3033;1
173;3612;1
1162;2541;1
84;1616;1
1890;1894;2
20;3604;1
130;571;1
1;4438;3
2633;2818;1
312;394;2
853;3890;1
236;424;1
218;687;1
115;694;1
948;3024;1
50;55;1
176;3398;1
300;3188;1
533;1287;1
212;1722;5
52;3735;1
1324;4129;1
749;1133;1
197;198;1
330;1805;1
20;3357;1
1139;2934;1
853;907;7
28;2572;2
3788;4297;1
468;1758;2
99;2674;1
42;586;1
36;2277;2
33;261;2
752;923;1
28;1560;1
139;2117;3
280;281;3
51;726;4
3345;3632;1
381;591;1
20;1613;1
1113;1124;1
84;3170;1
218;220;1
316;2837;1
2045;3345;1
84;1652;1
18;38;2
42;160;1
242;1627;1
115;1819;1
99;190;2
183;1686;1
160;298;1
18;968;1
535;749;6
118;121;1
1248;3648;1
2189;4229;1
277;278;4
72;528;4
370;2448;1
18;2857;1
42;3006;1
256;1557;2
200;1527;1
884;885;1
2904;4575;1
1525;2455;2
415;3759;2
644;1219;2
44;2039;1
775;791;1
735;1399;3
286;2124;1
1809;1811;1
300;1112;1
749;782;1
735;1043;6
130;834;1
28;1019;3
153;350;1
1162;2457;1
1622;3123;1
1805;4046;2
139;3489;2
18;4191;1
819;4224;1
868;869;6
1448;1449;2
225;1162;1
8;752;1
116;625;2
28;3519;1
2862;2974;1
286;1758;1
2848;3203;1
218;3608;2
1807;3075;1
44;1151;1
841;2527;1
89;2402;1
559;3152;1
1218;2503;2
311;691;1
272;4393;1
477;2060;1
183;1525;3
164;2915;2
95;153;1
529;2299;1
28;198;2
286;998;1
130;395;1
14;3288;1
749;3057;1
559;1719;1
694;1805;1
557;4259;1
14;691;1
3285;3528;1
1462;3058;1
879;880;2
2189;4491;1
1462;2925;1
490;1901;1
115;4388;1
129;357;1
2455;3637;1
370;755;1
99;1075;1
84;3730;1
286;2073;1
139;140;30
36;284;1
612;883;6
1107;4445;1
612;4538;1
2138;2238;1
116;3369;1
20;2628;1
490;3554;1
1998;2204;1
3788;3936;4
97;3856;2
735;3248;2
133;600;1
309;3326;1
28;3150;1
160;1470;1
2992;2995;1
1692;3600;2
3708;3709;1
4150;4178;1
36;1974;1
16;170;10
115;1687;2
20;2159;1
3371;3372;3
1270;4510;1
51;300;2
164;757;1
42;4029;2
173;769;3
164;580;1
256;2475;2
1748;2684;1
300;1200;1
139;3314;1
1587;2347;1
115;1235;1
1120;1218;1
632;1410;1
644;2328;1
1248;1884;1
33;1717;2
1125;1162;1
36;2600;1
515;3361;2
115;586;1
16;2923;1
212;2520;1
1324;4158;1
130;2664;2
1185;4555;1
1805;4085;4
173;2340;1
665;2444;1
665;2036;1
1908;3023;1
42;2728;1
36;391;1
1218;1919;1
23;651;1
195;2506;1
251;567;1
105;1825;1
173;4355;1
1012;3458;1
100;304;1
1248;2800;1
931;1805;1
735;1583;3
36;3639;1
156;256;1
1569;1804;1
221;855;1
468;2084;1
89;2345;1
395;1162;2
116;3606;3
1499;4600;1
316;956;1
855;3337;2
8;1936;2
286;2811;3
20;1055;2
105;4444;1
490;669;1
1805;2389;1
76;3586;2
1013;2884;1
2913;4263;1
68;1853;1
330;1576;1
1;2924;4
996;997;3
236;1305;3
62;855;1
923;2125;1
28;2415;1
89;4099;1
1324;4130;1
28;2462;1
20;3358;1
2209;2215;4
251;1128;1
181;1805;2
1102;4298;1
1162;2323;1
1692;1736;2
218;3166;1
513;3037;6
490;1750;2
819;820;2
36;2278;1
173;4027;1
1162;1949;2
1535;1796;2
316;2838;1
613;1012;1
20;1915;1
72;2486;1
1013;4135;1
236;1781;1
3524;3530;1
195;564;4
18;39;1
618;1088;1
20;1100;5
52;3201;1
515;4395;1
42;1987;2
1248;3649;1
36;3277;1
89;3117;1
236;1556;1
160;4257;1
10;811;1
212;213;15
370;2449;1
76;1112;1
578;1462;1
330;2068;1
1248;2334;1
300;2748;2
42;3007;1
200;1528;1
164;2195;2
182;1012;1
42;2638;2
5;1398;1
162;3995;2
1809;1810;2
2299;3515;1
735;1042;20
256;1844;1
333;1850;1
28;2688;5
3402;4573;1
97;3851;2
141;1878;1
490;1738;1
23;4397;1
735;1857;3
115;412;4
55;298;1
1458;1496;1
635;1465;2
51;644;2
46;861;3
1113;3050;1
207;2658;1
99;2093;1
2913;3825;1
618;2523;2
18;361;8
95;853;17
853;1881;1
55;1515;1
54;2542;2
1515;1825;1
89;2401;21
256;700;1
298;299;3
515;4342;1
28;3964;1
18;922;1
286;999;1
212;2672;1
28;374;1
42;1980;2
42;3354;1
4;4153;1
1462;2624;1
891;4335;2
204;742;1
612;1787;5
84;2184;1
2848;2973;1
533;1485;1
1697;1698;1
2934;4109;1
2455;3636;1
36;2938;1
200;3272;1
46;483;1
1418;1419;1
2730;3655;1
621;3322;1
20;2629;3
490;3555;1
735;4415;1
84;624;1
116;3417;1
97;3863;1
148;149;5
28;1162;1
84;3559;2
618;3963;1
28;1490;1
286;1934;1
1162;2061;1
42;2150;1
515;3362;1
14;1556;4
53;873;1
10;2227;2
3345;3839;2
775;2850;1
490;4311;1
3482;4528;1
124;216;3
164;1107;1
1192;1193;1
2670;2671;1
99;3699;3
475;2723;1
506;507;1
36;520;1
1126;1493;1
33;4482;1
115;1234;1
2921;2922;1
46;1859;1
36;2601;1
515;3360;1
696;3409;1
147;1113;1
20;3109;3
879;954;1
597;813;2
498;4150;1
212;2521;6
36;2831;1
14;3398;1
415;1805;3
1012;4047;3
162;2478;1
139;2463;1
591;2325;1
76;838;1
259;1618;1
16;3573;1
749;1449;1
386;3879;1
1864;2414;3
272;2187;1
23;650;1
841;1475;1
124;713;1
3788;3973;1
28;4500;1
16;1351;3
3546;3547;1
115;3731;1
805;1462;1
97;3101;2
141;1611;6
604;3512;1
51;2344;6
3345;3658;1
735;1582;1
236;1516;1
25;749;1
160;836;3
52;210;1
54;1632;1
1856;2934;1
853;1952;1
2862;2886;1
296;1863;2
8;1794;1
176;3900;1
40;3793;2
1013;2224;1
2509;2676;6
2679;2680;1
20;1048;3
1630;1692;1
162;1273;1
76;3587;1
173;407;1
50;1678;1
20;1406;2
1569;3146;1
300;3190;1
309;792;1
18;535;2
224;256;1
6;712;15
28;604;4
212;3873;1
3512;3513;1
18;1176;1
200;3249;2
1376;2455;1
115;4383;1
221;222;4
475;3826;1
28;866;5
1805;3945;2
936;1334;4
1692;1737;1
372;380;1
490;1751;1
51;1185;5
426;427;2
300;2220;2
132;601;1
51;2455;5
2380;2381;1
428;2207;2
3345;3638;1
256;260;1
20;357;1
2126;3316;1
788;1890;1
632;2490;1
319;1420;4
1013;4134;1
1230;2070;1
618;1086;1
20;3626;1
2575;2576;1
20;3737;1
1964;2286;1
591;1058;2
286;2772;2
160;300;1
256;1023;3
161;1122;1
2952;3179;3
665;4603;1
28;3210;1
1908;4461;2
99;2360;2
428;3579;5
153;224;1
1673;3755;1
55;153;2
236;2543;1
597;598;1
101;2855;1
20;743;4
20;3379;1
270;4405;1
28;2689;1
97;3850;2
490;1739;4
936;1441;1
868;2980;1
23;1111;1
178;4561;1
256;369;1
506;659;9
99;2704;1
557;3158;1
735;1638;1
99;2092;1
557;558;1
873;1001;4
118;3268;1
3345;3747;1
256;415;2
28;1971;2
1324;3815;1
2002;2299;1
115;2011;1
51;323;3
16;4238;1
28;3965;1
618;2573;1
218;579;2
23;2178;1
97;626;2
28;192;2
51;97;1
212;2673;1
1805;2315;4
2455;3187;1
1324;3988;2
1442;2455;1
236;498;19
99;3090;1
36;3298;1
2252;3347;1
84;2330;1
891;4334;1
1964;2439;2
286;529;1
84;2185;2
2299;3211;6
36;2834;1
533;1484;1
1673;2067;2
1318;4592;1
1013;1016;1
779;3112;1
853;4247;1
200;1557;1
212;1788;2
2194;2195;2
116;2896;8
20;3543;1
621;3321;1
775;2270;1
1805;1949;1
105;2386;1
735;4414;1
129;182;1
225;557;1
490;1327;17
50;656;4
316;2715;1
277;1895;2
6;111;1
212;3468;1
42;2151;1
703;2158;1
132;529;3
20;2827;3
1458;1533;1
515;3496;1
853;3461;1
18;424;3
115;1768;5
600;924;1
607;1551;1
42;437;3
4150;4291;1
853;4199;1
129;2999;1
286;3043;1
159;4387;1
46;1783;2
36;521;1
298;4004;1
907;1462;4
182;1162;4
131;164;2
115;1237;1
52;674;1
36;2602;1
20;3110;1
16;17;5
212;2522;1
76;1121;1
1305;3455;1
752;1462;1
130;1644;1
2471;2472;1
749;835;4
1805;3908;8
298;1497;1
42;1135;1
909;3367;1
116;3343;3
283;1492;1
33;2489;1
160;665;1
28;4501;1
2274;2755;2
97;1655;18
212;3488;1
99;4306;1
97;3100;2
236;2826;1
909;3307;1
212;3095;1
42;2282;1
115;1732;1
14;2124;1
28;3553;1
300;4266;1
1805;2024;1
154;2775;1
2862;2887;1
164;1136;1
1489;2435;1
3134;3135;1
16;3823;1
319;724;1
183;1305;1
36;1162;1
51;187;13
1185;2260;1
156;2194;1
42;1975;2
51;89;4
116;4233;1
74;474;1
515;3359;2
300;3191;1
370;855;1
2341;2342;1
3512;3514;1
1692;2369;2
84;235;1
256;1723;1
352;4032;1
20;691;3
958;4479;2
3788;3931;1
612;900;1
76;2982;1
372;381;2
909;3548;1
300;2846;1
115;3777;1
116;890;2
99;2389;1
644;3162;1
665;2986;1
76;303;1
20;3011;1
116;536;3
187;3115;1
2189;3969;1
218;219;1
236;1376;1
591;592;3
89;2458;1
716;717;3
767;1805;1
618;1087;1
99;2529;2
380;490;2
352;1035;1
84;486;8
53;557;1
54;1822;3
296;302;1
735;2557;1
207;536;3
42;1985;2
665;4169;1
1324;3904;1
28;387;3
164;1198;1
36;950;1
18;745;3
23;1961;1
122;341;1
1513;3022;1
372;3286;1
221;1907;1
200;4478;1
42;3005;1
1535;4252;1
236;595;2
31;32;3
581;2429;1
33;1215;1
739;1805;1
28;2690;1
330;1038;1
214;2208;1
247;3219;1
115;3805;1
115;497;3
12;210;1
200;2053;1
173;3886;1
236;1446;1
1692;3599;1
1805;2688;1
247;282;2
621;745;1
99;259;4
89;1817;13
3345;3746;1
428;855;2
909;1217;2
1622;3693;1
28;4226;1
272;1305;1
236;1642;1
74;3145;1
18;920;1
2186;2246;1
99;2027;1
300;1118;1
515;721;1
1536;1537;1
116;1594;1
173;589;1
50;408;1
236;499;2
352;2124;1
1013;2953;1
716;2193;1
36;3299;1
1371;3135;1
84;2331;1
735;761;1
5;1462;2
50;845;1
3788;4142;2
644;1299;1
36;136;2
28;4221;1
357;1012;1
330;1856;1
1163;2194;2
515;4340;1
20;875;11
97;3861;1
311;3749;1
18;3532;1
160;749;10
330;1205;1
1805;1918;1
212;3469;1
84;2604;1
2126;3091;2
735;3155;1
247;329;1
372;2407;1
18;425;1
490;2981;1
386;749;1
139;3073;1
323;423;1
1673;1799;1
2785;2786;3
97;1046;1
352;4568;1
632;1080;1
84;431;1
640;641;1
36;522;1
316;2110;2
95;105;1
1525;3062;1
28;182;3
484;2828;4
1587;2348;1
115;1236;1
51;124;3
52;675;1
704;2126;1
218;2531;1
353;356;1
2239;2240;1
129;3295;1
1462;4419;1
236;4015;3
749;2915;1
665;4530;1
557;1628;1
153;814;1
200;4391;1
565;1805;1
242;3446;1
6;637;1
316;317;1
1316;2226;1
286;2281;2
1102;1103;1
8;1041;1
212;4077;1
23;3199;1
1162;4039;1
909;3366;1
28;911;1
350;749;2
855;1850;1
116;2596;1
74;3849;1
259;2625;1
97;3889;1
259;1394;3
173;4352;3
76;437;1
115;425;2
1162;2020;3
300;301;1
513;3430;2
557;3084;1
42;2283;1
23;1916;1
270;271;3
300;4267;1
3371;4140;1
242;3271;1
212;3318;4
109;110;1
20;417;1
2109;2230;1
99;3729;1
464;618;1
14;2334;3
3512;3984;1
618;2611;1
530;3848;1
161;1259;1
311;613;1
855;4223;1
214;2956;1
33;1765;1
352;2437;1
426;2932;1
1198;1218;1
162;870;1
735;2255;1
50;51;11
182;2848;1
735;2140;2
18;22;9
330;1801;1
99;1100;1
36;343;1
1805;3943;1
517;3232;1
1788;1805;2
600;4541;1
3806;4577;2
28;1868;2
20;803;1
96;153;7
372;382;1
99;2759;1
40;4016;1
28;1509;1
300;386;1
51;828;2
2628;4582;1
139;2169;1
99;2469;1
300;1696;1
36;1914;1
557;2844;1
2950;3490;1
74;3809;1
513;3274;1
183;1118;1
879;1837;1
316;2833;1
672;1805;1
221;4544;1
2472;2929;3
36;1112;1
76;2377;1
373;749;1
1725;3707;1
176;4323;1
159;4602;1
1012;1248;1
2049;2143;1
319;4320;1
259;421;1
735;2556;1
779;3650;1
405;2344;1
1673;1674;1
749;2569;1
665;4168;1
2189;4225;1
153;964;1
20;1308;7
18;2962;3
256;2851;1
300;1320;1
212;2476;4
244;3833;1
397;3131;1
1324;4210;1
115;4428;1
89;4396;1
124;1051;1
236;573;2
129;285;1
207;1712;2
270;1022;2
28;2557;1
221;3280;1
749;1502;3
581;2428;1
853;4563;1
819;4319;3
20;788;3
14;3678;2
530;3173;3
1120;1805;1
28;2691;3
3788;3960;1
36;474;1
6;246;1
28;3174;3
372;4009;1
735;1858;1
20;2929;3
28;1656;4
173;3885;1
1090;1162;2
99;2094;1
2679;3070;1
99;939;1
300;1563;1
286;3374;1
3345;3745;1
665;1019;4
853;3762;3
490;796;1
2921;4268;1
20;1805;6
84;404;1
1113;3130;1
259;2140;1
236;1171;1
300;1224;1
160;475;1
99;2026;1
139;887;4
164;258;1
1047;1805;2
1324;3990;1
732;733;1
835;2455;1
2189;4261;1
42;3353;3
2274;3991;1
218;786;1
2848;2849;2
2424;2425;1
236;4059;1
173;366;2
16;55;1
635;4327;1
76;3588;1
154;173;1
1513;2874;1
3788;4143;2
28;3324;1
36;137;2
1805;4045;2
425;1218;1
218;2880;2
28;821;1
33;1257;2
2862;4084;1
530;4139;1
286;3641;1
242;1249;4
16;2736;1
836;2579;1
1185;4365;1
1047;2455;1
1218;1815;1
644;4473;1
236;854;2
97;3860;1
309;2606;1
1805;2028;2
23;720;1
691;1126;2
84;2605;1
1162;2056;1
42;2149;1
2126;3088;1
735;3154;1
116;546;5
28;1628;1
1218;2915;2
20;2948;1
16;4071;1
1462;3710;1
221;4454;1
218;225;1
286;4471;1
212;3471;4
891;3614;5
252;256;3
1673;1798;1
1023;2913;2
20;2266;1
742;743;1
1012;2753;1
14;609;1
110;1805;1
218;3947;1
943;3653;1
115;2814;1
36;224;1
395;749;1
101;973;1
33;1353;4
115;1525;1
1330;1462;2
270;1253;3
247;2844;1
115;590;1
20;3104;1
428;1681;11
16;2927;1
1605;4150;1
242;3447;1
1692;2431;6
1324;4154;1
153;2363;1
1218;1625;1
12;2018;1
23;3198;1
40;3767;1
28;1276;1
89;3622;1
749;1446;1
581;2356;2
971;1012;2
665;2305;1
153;361;1
16;1323;1
89;1387;3
3788;3968;1
97;3888;2
23;1064;1
42;4250;1
101;2842;1
76;438;1
1162;2021;1
490;1424;1
42;2137;1
1470;1471;1
97;3459;1
635;3111;1
28;1862;1
2509;3343;3
296;2947;3
1890;3607;4
397;2140;1
1890;1891;3
1324;3827;2
405;1805;1
221;4253;1
14;51;11
115;2778;2
212;360;1
97;952;1
1622;1624;1
745;1012;1
236;421;5
20;1162;1
735;2233;1
14;2984;5
183;735;14
1673;2383;1
703;1494;1
2765;2766;1
1162;3206;1
3176;3177;1
218;1260;1
2274;3344;1
139;2492;1
2299;3475;3
221;1696;1
557;2034;1
156;1805;10
20;812;3
110;1692;1
372;383;1
749;1307;1
236;1182;1
49;909;2
40;4017;1
176;177;2
76;474;1
44;1612;1
581;1395;5
162;239;1
236;2920;1
2126;2844;1
162;1650;1
779;2088;1
236;1491;3
879;1836;1
600;4542;1
468;673;1
475;1994;1
468;1405;2
164;698;1
1230;2069;3
286;4318;2
618;1085;1
18;35;7
207;2393;3
14;15;3
74;282;1
115;1822;1
515;4399;2
1324;4019;1
300;1035;1
286;1074;3
182;735;10
18;1117;2
286;1117;1
272;3503;1
101;662;1
309;4497;1
51;1877;1
115;951;7
84;1454;8
256;4385;1
283;535;2
309;464;1
853;4193;1
853;938;1
618;1689;1
286;357;3
996;2334;1
33;2550;1
236;883;4
97;3855;1
28;2867;1
24;3870;1
716;1204;3
490;4426;1
28;2978;1
735;1869;3
635;1469;3
173;3884;1
1013;3712;1
115;4093;1
1461;2472;1
16;4092;1
18;3265;1
20;1576;2
1162;2935;1
20;260;3
259;964;2
2848;3224;1
326;1216;5
515;4205;1
319;750;2
635;3065;1
855;936;1
28;172;1
160;476;1
109;855;2
2186;2244;4
130;2824;1
2913;3249;1
14;2630;1
1536;1539;1
139;711;2
1462;3577;1
161;855;1
413;414;4
338;413;1
1368;1762;1
1481;2126;1
286;2400;1
60;3669;2
2126;2127;1
270;4149;1
28;2387;4
36;138;2
20;535;5
1748;3619;2
716;4470;1
16;2737;1
1692;4347;1
1692;1693;1
316;1180;1
530;2714;1
1890;2614;1
1518;1519;6
28;2784;1
1725;1956;1
1805;2027;8
200;224;1
2455;2856;2
775;2553;1
160;2186;1
1791;2435;2
415;1534;1
2126;3089;1
116;547;1
20;2949;1
2803;2804;1
33;34;14
2299;4212;1
51;468;5
148;2081;2
4150;4294;1
221;3098;1
286;3226;1
296;345;10
23;286;1
1013;3209;1
853;4023;1
632;1004;1
319;1076;1
3811;3812;1
84;3675;2
160;1185;2
18;781;6
129;4177;1
571;740;1
236;2301;1
735;2261;1
323;1027;2
36;968;1
716;1626;2
132;3343;1
28;2304;4
20;580;2
76;1011;1
3870;3871;1
591;2321;1
1585;1586;1
55;115;3
40;3768;1
819;3226;1
581;2355;1
132;835;1
51;2785;1
1470;3438;1
600;686;1
259;2621;1
256;3874;1
236;2821;3
183;2495;2
153;1025;3
618;1207;1
319;2108;1
2862;2890;1
420;745;1
236;1678;1
46;2895;2
316;953;1
145;199;14
879;1630;1
60;4057;1
14;2622;1
277;4220;1
1536;1538;5
6;1442;3
591;1384;4
618;1690;1
619;879;1
535;1462;1
161;799;3
36;2633;1
18;2988;4
33;4236;1
735;2249;4
50;128;12
635;4270;2
607;2192;1
33;979;5
1692;2291;2
1534;1588;1
212;2271;1
164;1902;1
557;2033;1
84;1385;4
1316;2998;13
319;1960;1
36;416;2
853;4526;1
200;357;1
20;2792;3
1248;3550;1
16;587;10
236;1070;2
28;1669;1
115;1701;2
16;4289;1
879;1839;1
316;2835;1
1504;1505;1
968;1462;2
51;506;7
164;699;1
256;550;1
116;3703;1
36;3443;1
330;865;1
735;2558;1
1908;2007;1
26;2109;1
28;367;1
935;1462;2
44;725;2
530;3596;1
501;4553;2
124;1335;1
31;1285;2
1585;3426;1
115;1452;1
590;1515;1
3870;4021;1
1462;2971;1
656;1953;6
18;1414;3
28;1031;1
107;298;1
236;590;2
1102;1157;1
259;3437;1
105;3869;1
1176;1462;1
7;52;2
300;2926;1
1805;3610;1
8;777;1
2800;2803;1
490;4427;1
68;964;1
23;4392;1
28;2979;2
1162;2066;1
477;3148;1
173;3883;1
259;950;2
506;2499;2
300;2482;5
52;231;2
775;1739;1
156;200;1
99;260;2
2274;4439;1
372;4344;1
89;2555;1
118;638;14
116;1264;3
207;731;3
187;1530;1
84;406;4
3578;3976;1
1013;1567;4
28;173;1
2153;3449;1
18;919;1
612;1843;1
853;932;1
515;722;1
53;703;1
1536;1540;3
2474;2848;1
439;440;2
153;855;1
490;3624;1
559;1847;1
164;594;1
1525;1805;1
76;968;1
116;505;4
3870;3872;1
28;823;1
749;1071;2
28;2499;2
2189;3003;1
316;1181;2
475;2479;2
28;981;2
129;138;3
212;1101;1
116;250;11
775;2552;2
28;3323;1
1831;2848;1
115;3627;3
513;3350;1
20;170;7
153;1211;1
462;463;1
513;1451;1
559;2991;3
909;1024;3
1255;4003;1
6;2024;1
609;2746;1
909;4005;1
2862;2863;3
1536;2212;1
116;1189;1
776;909;2
52;904;1
1162;2781;1
807;808;11
214;3544;2
270;1630;1
162;1262;1
112;113;1
76;3604;1
33;4214;1
2509;2733;3
3996;4107;1
1462;2742;1
1807;1813;4
286;855;2
127;187;8
14;3113;2
28;454;1
259;3702;1
8;1334;1
1105;1805;1
89;4137;1
20;564;1
221;3327;1
3214;3512;3
185;3527;1
891;3365;1
42;2563;2
1673;2285;1
89;3620;1
836;837;4
124;599;1
1230;3189;1
107;3512;1
1633;1634;1
54;57;2
1470;3439;1
46;2337;1
2586;3238;1
1805;3389;1
1218;4102;1
244;3477;5
1795;4449;1
256;4050;1
779;1882;1
76;1962;1
1662;2712;1
420;3296;1
80;81;1
156;286;1
52;223;17
109;474;1
236;3108;1
14;2499;2
2862;2891;2
139;4209;2
164;535;1
20;2415;1
415;567;1
28;260;5
212;2741;1
352;2456;1
18;2074;1
735;2235;1
236;3711;4
14;3226;1
2565;2848;1
319;3220;1
25;2455;1
42;3551;1
735;2248;1
749;3096;1
176;3453;1
853;2077;1
2848;4231;1
115;1344;1
46;66;2
207;1753;1
352;4036;3
4119;4120;2
197;848;1
413;1523;1
20;3467;1
1462;2121;1
597;1439;2
36;417;1
51;912;3
749;1305;10
1162;2540;1
164;1613;1
20;2793;3
236;1071;1
44;1614;1
236;3035;2
141;1020;3
132;2233;1
600;4450;1
129;924;1
600;1173;1
286;3494;1
51;735;9
879;1838;1
160;212;1
99;1813;1
84;1651;1
33;3408;2
20;1098;1
18;2396;1
23;321;1
218;2359;1
33;3506;2
52;1354;1
557;3795;7
20;3972;1
1499;4599;1
31;1284;1
996;1072;1
200;4371;1
227;553;1
115;4512;1
330;1654;1
26;27;3
703;1686;1
330;2288;1
16;3491;1
1809;1812;1
157;2913;1
735;1048;3
259;3581;1
735;3380;1
1692;2119;3
84;602;1
97;3853;1
1692;4086;1
6;245;11
44;56;15
176;192;1
236;2984;1
490;3243;1
283;3157;1
214;3974;1
284;749;2
173;3882;1
28;3027;1
272;849;1
72;73;7
28;1770;1
853;3421;1
477;1081;13
89;2121;1
62;104;20
28;3668;1
173;3677;2
3345;3895;2
610;632;1
153;264;1
2913;3541;1
1805;4472;2
2934;3621;1
735;2525;1
428;1531;2
853;3842;7
14;408;1
36;752;1
221;300;3
1536;1541;1
204;574;1
36;4543;1
2299;4000;1
498;1218;1
397;3450;1
428;2175;1
148;744;2
28;376;3
153;854;1
490;3625;1
14;549;3
36;37;1
640;4011;1
80;3800;1
20;529;1
383;735;5
2455;3634;1
853;987;1
749;1070;3
54;3967;2
2189;3002;2
517;518;2
270;840;1
62;4507;1
28;1290;1
743;1805;2
28;982;1
23;3893;1
477;1625;1
490;3215;2
84;3420;1
618;2292;3
16;660;1
164;1300;3
256;4087;1
735;1584;4
236;1414;2
20;171;1
950;2126;2
251;1023;2
42;446;2
200;4087;1
468;628;1
160;173;1
1239;2322;1
1;3824;6
52;905;1
296;297;1
200;924;1
296;347;6
1462;3257;1
286;954;1
632;3654;1
1218;2389;1
1692;3138;1
162;1263;1
1255;2551;1
2575;4437;1
28;336;2
1673;2384;1
212;1992;1
490;2198;8
115;4587;1
779;2014;13
716;3840;1
198;3402;1
42;3054;1
597;664;2
1248;2268;1
1462;1464;1
330;2233;2
1324;1606;1
100;1239;1
841;991;4
183;184;2
187;189;5
115;2427;1
218;1321;1
28;746;1
716;899;2
330;1090;1
779;2339;1
212;4326;1
703;788;10
1013;3797;1
176;502;1
89;1979;2
76;1963;1
272;273;2
16;1258;1
319;2217;2
1805;3301;2
23;2025;2
373;612;1
55;836;1
909;2413;2
173;1162;1
1013;1573;1
316;955;3
1462;4246;1
1462;3256;1
484;2860;1
1321;1535;1
1805;2382;2
735;2234;1
618;1688;1
618;3508;1
270;1365;1
529;1709;1
3285;3352;3
735;2251;1
28;2295;1
775;4269;1
36;1006;1
18;529;2
1218;1686;1
23;224;1
212;1619;1
46;67;1
139;495;1
52;1028;2
101;3432;1
735;3049;1
101;2829;2
36;204;2
99;1136;1
2299;3476;1
115;2470;1
1805;3939;1
23;567;2
84;1387;2
640;1989;1
54;107;1
20;815;7
555;2950;1
420;1171;1
3788;4007;2
20;2794;3
515;4293;1
101;102;1
784;3998;2
600;4451;1
16;4276;1
28;3411;1
323;325;2
2862;2954;1
735;3876;1
1692;4278;1
813;853;1
879;1833;1
18;1576;1
20;1023;1
1890;1939;1
3371;3834;1
46;4265;1
1320;2455;1
89;2751;6
293;1805;4
18;2397;1
129;2716;1
357;1462;1
300;1143;2
33;3505;1
52;1355;1
1513;2711;2
557;3794;1
735;994;16
1805;2243;1
256;3091;1
36;3419;1
14;590;1
153;155;1
286;2085;1
68;258;5
161;1696;1
270;962;1
130;1617;2
182;286;1
20;749;2
1324;3457;15
726;2011;1
173;1977;1
1185;4453;1
46;680;1
105;4012;1
154;4430;1
99;2710;1
28;1366;3
328;703;1
20;2702;1
100;352;1
160;2913;1
735;1870;1
221;3808;1
115;357;1
84;85;3
1534;2634;1
173;3881;1
607;1408;1
139;4429;1
372;739;1
28;3511;1
28;1818;7
610;4206;1
1;3962;1
28;1929;1
3345;3894;2
515;566;1
207;2366;1
735;2524;1
182;484;1
203;352;1
1536;1542;2
36;1900;1
735;2290;3
3482;3802;2
735;855;3
68;1916;1
735;1480;2
14;2103;1
402;2532;1
2934;4100;1
2299;3454;1
703;2627;1
33;1261;1
36;260;2
1805;3930;1
148;2698;3
807;1952;1
16;856;1
4043;4044;1
1096;2126;1
18;1162;1
316;1183;1
600;4487;1
530;2713;2
28;983;2
212;3764;1
251;256;3
28;2787;6
807;1587;2
99;870;2
105;2533;7
36;182;1
735;1821;1
55;703;1
415;4590;1
28;1577;1
162;163;1
256;4040;1
1341;4390;1
1185;1301;1
18;418;1
3788;3789;1
218;1686;1
173;3742;1
183;1133;1
42;447;3
224;1462;1
173;1185;1
2517;2519;1
116;1191;2
536;2509;1
156;218;1
286;3225;1
20;2389;5
36;567;5
97;551;1
256;2467;1
164;3092;1
52;825;2
218;545;2
129;2756;1
413;1912;1
716;1911;2
214;4480;1
214;4132;1
2913;4243;1
968;2343;1
490;2199;9
1805;2059;1
244;2505;1
352;415;1
1239;1240;1
941;1805;5
84;4304;1
187;188;1
511;2378;1
99;2625;3
277;1955;4
749;1331;1
428;4093;1
51;807;9
1823;3980;4
2785;2944;1
352;3541;1
164;940;1
581;1213;1
1506;1810;1
1525;3330;1
490;1217;1
2862;2889;1
132;160;4
164;529;1
23;2530;1
84;3748;1
14;55;3
420;970;1
1462;4247;1
490;2374;1
118;3923;1
20;1063;1
3482;3696;2
224;1805;1
286;2461;1
618;3509;1
316;1708;1
3136;3137;1
46;209;2
853;2075;2
212;1628;1
28;603;1
124;800;1
28;2407;1
221;2418;1
286;2254;1
236;613;1
139;4317;1
640;3843;1
853;2798;1
1805;3938;1
352;655;1
115;253;4
124;2473;1
84;576;3
76;3036;1
372;379;1
655;1398;1
116;832;1
286;3722;1
160;1534;1
259;4584;2
621;622;1
923;4595;1
578;2455;3
20;3017;3
581;1280;3
559;1188;1
323;324;1
53;115;1
2862;2955;1
1536;2112;1
439;4375;1
597;3230;1
879;1832;1
100;129;1
591;789;2
635;3365;1
42;169;1
303;2934;1
89;2750;1
233;1282;1
14;386;1
18;961;6
330;1023;1
20;4106;1
1748;1749;1
1324;3902;1
716;2155;2
74;75;1
1302;1805;1
1;3031;1
200;4373;2
33;3218;7
557;4295;1
101;3386;1
397;4368;1
18;2846;2
397;3126;1
212;3916;1
3788;4096;3
879;980;1
20;639;25
8;1119;1
153;154;6
749;1096;3
36;225;10
28;4230;1
2299;3507;1
1662;1663;1
2126;2432;1
272;3951;1
99;328;1
204;1805;3
1126;1564;1
909;4222;1
105;2457;1
200;672;1
84;2582;2
316;2685;1
55;715;3
99;555;1
1162;1977;1
28;1653;1
89;3403;1
84;3241;1
2848;4030;1
236;2888;1
632;3184;1
1692;1830;1
20;2140;1
2503;3455;1
51;426;1
139;4138;1
99;1103;6
28;1930;1
853;4200;1
51;311;13
97;4194;2
256;692;1
76;2297;2
28;168;1
591;1039;4
89;2571;2
1805;4184;1
1536;1543;1
42;2809;1
2144;2145;1
552;3512;1
300;590;2
909;2936;2
3020;3021;1
1462;3436;1
159;1669;1
33;1297;1
42;2937;1
259;3615;1
703;1112;1
417;735;1
330;1640;1
236;655;4
20;1452;4
1318;3082;2
357;621;1
28;643;4
160;1255;1
2109;3364;1
853;1165;1
397;1431;1
1805;3929;1
515;3028;2
1248;2064;1
716;778;1
221;3617;1
1013;2191;2
28;1467;3
841;1464;5
716;1000;1
316;2706;1
259;1453;2
352;2411;6
110;218;1
256;4041;1
870;2084;1
2334;3546;1
173;4152;1
18;1871;1
513;4539;1
14;1935;3
236;833;1
42;444;4
28;1919;1
2517;2518;5
2862;2866;1
20;395;1
259;693;1
515;4156;1
28;2030;1
162;1432;1
173;3051;1
2126;3537;1
115;1980;1
28;29;1
162;1035;1
300;3654;1
632;3656;1
330;932;1
236;2011;2
23;395;1
1850;2844;1
72;2975;1
115;4303;1
485;1012;1
415;749;2
54;1099;18
33;1356;3
224;397;1
18;555;6
632;1641;1
612;1671;1
323;1172;1
1470;3286;1
99;1481;7
50;875;1
36;170;2
4597;4604;1
221;1623;1
635;4580;2
115;224;1
563;1396;2
210;244;2
936;1346;1
853;4502;1
428;4094;1
735;2019;1
18;1150;4
600;690;1
200;256;3
20;107;1
84;3442;1
1218;4101;1
236;1109;3
490;2928;2
217;703;1
164;941;1
36;3640;1
581;1212;22
2913;3633;1
14;2502;1
227;229;1
819;4073;5
101;1429;1
439;4161;2
2022;3056;1
420;971;1
176;1375;6
490;2375;3
160;280;1
20;1056;3
1462;2790;1
286;1243;1
1673;3171;1
218;2497;1
212;1919;1
50;2926;2
236;305;3
20;1286;1
207;208;4
68;2398;1
853;2074;1
775;4271;1
1731;1805;2
580;749;1
46;65;3
749;1234;1
42;3008;1
612;3294;1
207;1754;1
2881;2882;1
621;1732;1
3788;4204;3
950;1710;1
1013;3416;3
640;3844;1
924;1805;1
853;2797;1
1248;3032;1
749;1413;1
16;929;1
153;328;1
749;1302;3
270;689;1
2848;3765;1
735;3315;1
1314;3798;1
225;735;3
2209;2810;1
84;3077;1
1536;2113;1
20;3001;1
513;3276;1
339;340;1
655;853;1
879;1835;1
1805;2732;2
99;1814;2
132;133;2
3371;3836;1
20;1815;6
319;753;1
97;765;7
221;3279;2
1692;3302;1
1534;3195;1
89;2749;2
20;1109;8
18;2395;1
42;1849;4
18;198;12
36;735;1
99;1605;1
118;119;1
176;1482;1
139;734;2
1255;2361;1
42;3518;1
164;2470;1
256;3204;1
1318;4556;1
1270;2040;2
530;3261;1
726;3378;1
703;1386;2
2509;2655;7
162;2172;1
175;665;1
283;2735;1
212;1478;1
1239;2017;1
716;886;2
1805;3769;1
236;2580;2
298;555;1
89;1702;1
3345;4447;1
3788;4037;3
224;735;1
110;319;2
204;256;1
2252;2253;4
131;1162;1
84;3242;2
515;1808;1
2575;4436;2
856;909;3
18;350;8
703;2465;1
300;1952;3
557;3440;1
36;1146;1
224;1162;1
841;2501;1
1805;4469;1
1113;3132;1
236;1164;2
300;1222;1
173;1104;1
415;635;1
54;2045;1
591;1038;3
357;1448;1
300;1109;2
1805;4183;1
20;3892;3
28;335;3
148;772;2
1;2945;2
84;86;1
490;508;12
1012;2125;1
183;947;1
559;2009;2
417;591;3
749;1067;2
749;855;3
272;357;1
212;3766;1
160;1113;1
28;1460;1
316;2707;3
42;3560;1
300;2156;3
1162;2098;1
164;1303;1
909;3327;1
16;1138;1
247;3986;1
20;182;1
42;445;2
150;928;5
600;3091;1
115;1550;1
156;212;1
276;749;1
28;30;16
1908;1909;4
26;3971;1
2455;3273;1
1126;1474;2
99;147;1
51;212;3
170;218;2
473;923;6
828;1639;1
1518;3106;1
1462;2977;1
89;683;2
36;3342;1
530;3664;1
490;2197;6
612;1664;1
42;3053;1
1805;3994;3
153;160;2
36;3564;2
1314;1315;4
192;330;1
115;4362;1
244;4014;1
3216;3217;1
153;2365;1
1113;2131;1
160;1270;4
936;1347;1
468;4213;1
2509;2511;8
105;106;2
1162;2548;1
105;2503;1
84;3340;1
101;2841;1
115;3738;1
153;1913;1
1162;2031;1
490;3310;1
286;2003;7
20;2871;1
581;1322;1
1534;2688;1
581;582;5
129;4378;1
513;4486;1
227;1786;1
879;4284;1
420;647;1
618;620;3
300;4145;1
31;4515;1
136;164;2
227;228;1
277;988;2
221;3306;1
101;1428;1
1185;1907;1
1998;1999;1
20;3726;1
490;2372;3
20;1057;1
23;2242;1
28;3835;1
36;4594;2
89;3059;2
212;2336;1
256;2910;1
300;535;1
2559;2560;1
187;399;1
42;3009;1
162;2534;2
488;557;4
212;4417;1
372;1907;2
64;533;2
931;2455;3
936;1343;2
330;1042;1
195;196;1
1185;2900;1
1162;2536;1
40;1155;2
28;2900;2
236;1067;5
402;3413;1
1462;2334;1
16;1067;1
161;182;1
735;1764;2
8;2539;1
60;956;1
1248;3377;2
469;2084;1
60;2503;1
76;182;3
3570;4545;1
513;4578;1
473;1162;1
139;3688;1
597;3228;1
1462;4022;1
2848;3186;1
879;1834;1
18;1575;1
1324;3828;2
132;134;7
591;900;1
1232;3763;1
1622;3124;1
828;4093;1
154;298;1
1805;2334;1
183;539;1
122;123;1
428;3066;2
352;2488;1
1673;2413;1
28;2262;1
101;3384;1
18;2844;1
1462;2972;3
153;318;1
36;156;2
236;2528;2
1270;2385;1
256;4391;1
330;1876;1
212;3472;1
775;776;2
212;1360;5
162;2173;1
218;1405;13
148;2656;1
160;2950;5
1162;2365;1
330;3810;1
716;3343;2
490;1328;11
200;202;1
153;1920;1
3345;3385;3
145;1096;1
20;2936;1
247;3977;1
16;4082;1
52;236;1
221;1096;1
200;567;6
2194;3485;1
2126;3400;1
99;408;1
490;2667;1
841;1967;1
1316;1317;12
23;2487;1
51;330;10
300;3676;1
1805;2592;1
62;334;2
300;1223;1
51;251;6
1805;2481;1
4150;4489;1
236;4488;1
1805;4182;1
36;3204;6
841;2231;1
13;28;1
2144;2147;1
735;2303;1
3482;3801;1
84;87;11
286;655;3
309;822;2
200;2277;1
55;2006;1
775;4321;1
153;2054;1
1162;4475;1
490;509;3
397;4363;1
735;737;1
259;1858;1
20;4341;1
89;1221;5
286;425;6
221;236;3
2586;2699;1
2419;2934;1
28;1120;3
1805;3927;1
775;876;1
330;2320;1
28;1175;10
46;344;4
749;1467;1
251;1066;2
853;1517;1
691;1534;1
618;4062;1
141;717;1
352;4452;1
28;1461;1
101;2485;3
716;1002;1
1805;3466;1
135;256;6
157;200;1
259;2047;1
162;190;1
99;2453;1
1012;1788;1
101;3303;2
3996;3997;1
2594;2595;5
42;442;1
1255;3887;1
20;405;18
99;436;1
632;788;1
31;2620;1
372;1047;3
46;3536;1
148;1108;1
296;351;3
84;3681;1
477;930;4
1518;3107;1
139;537;1
670;775;7
3371;4571;1
691;2344;1
182;665;1
530;3665;2
115;4591;1
330;1595;1
76;1035;8
20;3119;1
428;1672;4
16;2918;1
749;1260;2
591;4525;1
323;1174;1
236;749;1
153;167;1
256;4464;1
28;737;2
286;389;5
475;476;57
330;1900;1
259;1628;1
841;842;1
115;147;3
2509;2510;3
99;2771;2
72;1561;1
6;64;4
28;1544;1
490;3311;1
868;3196;1
162;194;1
775;4028;2
3179;3435;1
607;2844;1
51;710;2
665;666;1
99;2159;3
51;484;3
31;4514;1
28;1996;1
300;1897;3
46;2897;1
221;3305;1
139;3258;4
256;1066;5
490;2373;1
118;2434;1
428;1471;1
703;704;1
1162;2012;1
591;1511;3
1462;2566;1
173;286;1
139;1645;1
386;3330;1
173;175;1
283;659;1
44;412;4
154;236;1
428;3631;1
36;200;3
212;4418;1
1013;3185;1
1569;3147;1
3345;4308;1
244;410;5
132;813;1
372;691;3
40;1156;9
286;3721;3
16;577;2
36;1676;1
204;286;6
600;831;1
3570;3740;2
779;2512;1
221;405;2
873;874;11
160;779;1
2862;2958;2
182;1692;1
597;3227;1
130;862;1
4069;4217;1
2138;3207;1
1462;1788;1
62;3481;5
20;1905;6
1324;3829;1
259;655;1
28;2000;1
3595;4494;1
115;2751;1
828;4094;1
880;3870;1
99;170;4
1462;3144;1
1805;2333;1
28;357;2
40;473;1
164;357;1
612;1659;1
31;1283;1
735;895;3
1673;2412;1
277;435;3
183;4593;1
2848;4280;1
1;433;4
20;1419;5
439;451;1
105;1305;1
413;1520;7
36;157;4
853;4345;1
2862;4408;1
735;2910;1
162;2170;1
853;1759;1
749;3406;1
557;4416;1
330;1079;1
1692;4083;1
4090;4216;1
200;203;3
185;889;1
300;350;4
147;162;2
20;156;2
76;2608;2
1162;1591;1
286;1723;1
20;1591;1
44;1357;1
2126;4301;1
372;4294;1
20;498;7
1823;1824;2
319;646;2
841;1966;8
1218;2472;1
3371;4605;1
1148;1149;1
164;596;1
775;1140;2
221;3281;1
28;171;5
632;1068;1
161;526;1
124;4532;1
2509;2610;35
236;3742;4
31;3473;1
1805;4181;1
55;1587;1
909;977;3
3597;3598;1
559;2015;1
735;2302;1
1020;1316;1
182;557;5
130;392;3
227;584;3
3566;3567;6
775;4337;1
735;736;5
118;738;1
357;618;1
1126;1458;1
468;469;4
130;170;1
793;794;1
530;4240;2
557;4554;1
236;936;2
36;2116;1
84;1336;1
84;532;2
123;1126;1
716;773;1
236;831;1
475;2758;1
316;1179;2
853;1516;1
618;4063;1
115;2323;2
28;1462;3
300;435;1
164;389;2
28;2926;1
100;256;1
372;557;1
153;684;2
2153;2930;1
160;819;1
115;3919;1
42;443;2
490;4314;1
530;2280;1
212;527;1
864;1462;1
2862;2865;3
590;749;1
162;1431;1
3371;4569;2
1;4564;1
530;3978;1
513;1272;1
1126;1472;1
28;143;1
156;1012;1
498;749;13
635;2296;8
84;3682;1
203;256;6
1324;3954;1
841;2130;1
749;3017;2
749;757;2
3345;4379;1
139;617;2
130;2744;1
100;1534;1
28;2335;4
809;1710;2
36;70;1
644;645;1
1513;1514;3
779;1080;1
482;2934;1
218;2860;1
4597;4601;1
210;3512;1
20;673;1
270;809;4
259;2820;1
555;749;1
490;1766;3
148;2440;2
60;2783;1
420;1116;1
99;535;1
490;3308;6
28;3041;1
161;2357;1
176;491;1
270;357;4
2628;2629;2
31;4239;1
218;2644;1
97;3429;3
227;230;1
251;252;8
18;55;1
493;855;1
23;70;66
76;1636;1
477;1423;1
490;2370;3
1185;2274;1
161;3343;1
18;872;1
1035;1805;8
1096;1805;1
559;1943;1
853;4477;1
316;1704;1
18;2983;3
330;1628;1
436;1805;1
236;2159;3
173;174;1
3788;4350;2
8;2641;1
21;236;1
374;3229;4
1162;2454;1
2274;2813;1
16;1438;4
16;578;1
36;1677;1
76;466;1
277;1701;1
1162;2248;1
256;352;1
2913;3952;1
33;114;1
2862;2959;1
879;2451;1
490;4227;1
46;1512;1
160;891;1
101;2111;2
879;4283;1
259;654;1
31;3474;2
18;2503;1
300;1892;1
1725;1743;1
2299;3772;1
76;1416;1
330;872;1
2807;3568;1
50;283;33
256;1190;1
590;1185;2
533;1898;1
23;460;1
33;2912;2
84;206;2
18;844;1
256;2701;1
477;2382;1
439;450;2
164;2352;1
330;2072;1
16;83;1
2299;3433;1
74;2053;2
23;880;1
16;226;2
477;3713;1
421;853;1
162;2171;1
298;1759;1
1692;1713;5
105;3076;2
477;478;11
28;968;2
1113;4302;1
591;2631;1
130;3992;2
48;49;1
200;204;6
665;2812;2
735;1415;1
591;2917;1
204;259;2
3570;4496;1
600;907;1
109;267;9
311;1139;1
44;1358;1
490;3014;1
129;1480;1
259;605;1
1535;4468;1
97;1024;1
841;1965;1
18;236;3
20;2472;10
28;53;2
23;1778;1
1673;3041;1
1569;1570;2
200;201;1
161;525;1
124;4533;1
36;3127;1
97;1363;1
18;801;1
1270;2662;1
62;569;5
195;1112;1
130;393;1
153;856;3
775;4336;1
240;1306;2
76;1136;1
162;2493;1
468;470;2
1218;3262;1
530;4241;3
397;3239;1
18;835;1
330;1910;2
1805;3925;1
775;878;1
853;854;2
716;774;1
132;855;9
1486;1487;1
23;3891;1
129;131;1
183;368;1
256;3759;1
101;2483;1
200;3760;1
16;3890;1
1462;2389;1
105;173;1
1162;2097;1
97;3085;1
28;1621;1
853;3466;1
635;3237;1
124;125;1
1185;3565;1
42;2188;1
1535;4251;1
1162;1723;1
141;3912;1
853;3820;1
14;656;3
535;868;3
31;1265;2
4150;4425;1
115;3180;1
164;3202;1
490;2780;1
2670;3222;1
18;3643;1
513;4529;3
62;2140;1
485;879;6
74;2614;1
298;386;1
1462;1910;1
557;3716;1
203;259;1
1324;3955;1
164;190;1
909;2968;2
530;3663;1
1462;2987;1
1136;2472;6
286;2263;1
1408;3879;1
286;395;1
10;3214;1
550;600;1
3570;3571;1
339;4328;1
319;1601;1
530;3200;1
1805;3961;1
665;1991;1
597;1412;3
357;879;6
841;2686;1
62;4537;1
36;436;1
204;1218;1
28;1380;1
1162;2547;1
187;1937;1
1248;2846;1
99;2338;1
490;3309;1
116;503;18
1099;1341;1
164;1334;1
129;1302;1
316;764;1
153;1033;1
118;419;1
618;619;1
212;3320;2
187;855;1
1136;1218;1
477;1422;3
621;4031;1
490;2371;3
68;1277;2
173;634;1
319;2808;1
23;24;1
559;1942;1
221;415;2
316;1705;1
1232;1275;1
89;3149;1
2785;3240;1
18;523;10
236;2152;1
591;1430;1
303;3330;1
162;2418;1
1239;2646;1
28;2451;1
330;1855;1
397;4558;1
28;1194;1
530;3300;1
3788;4351;2
499;1805;1
221;2159;3
68;2846;3
1890;2567;1
40;1271;1
236;768;1
1805;2010;1
306;1126;1
36;1599;1
160;559;1
1113;2815;1
36;1678;1
643;1534;1
116;1020;2
948;3987;1
105;357;1
46;2743;1
612;2048;1
879;3253;1
1394;2126;2
574;2140;1
236;1476;1
996;1846;3
16;3608;2
3775;3776;3
286;1772;1
600;2931;1
164;860;2
326;1245;25
36;3759;1
236;4454;1
853;1864;2
1241;1242;1
841;1968;6
212;2844;1
18;2500;1
504;749;1
1725;1742;2
420;2759;1
1748;2745;1
2904;2905;3
779;1049;4
178;180;1
187;718;1
612;1637;2
1890;2164;1
124;337;1
36;3393;2
412;996;1
1324;1325;1
20;3297;3
330;2073;1
749;3351;1
14;1118;1
218;1225;1
95;1805;1
428;3740;1
51;1515;2
42;2754;1
1692;1714;1
1462;2660;1
251;1557;1
749;1381;3
2144;2146;1
4069;4088;2
42;2167;1
352;3363;1
242;1904;6
923;4562;1
147;164;1
109;266;3
236;1320;2
44;1359;1
357;3788;1
116;1097;2
1805;4576;1
227;3448;1
55;1534;4
23;2480;1
20;3683;1
236;3578;1
1162;2593;1
298;1760;1
153;739;1
164;421;3
124;4534;1
236;3736;1
1850;2821;1
1462;3143;2
1448;4322;1
28;331;2
1462;3574;1
108;153;1
171;1185;1
18;704;1
1;2870;4
156;1162;1
162;535;1
1013;3428;1
468;471;2
116;760;1
535;2455;1
89;3751;1
286;2059;4
256;4358;1
107;270;2
1805;3924;2
735;1404;1
618;4061;1
129;130;5
621;2420;3
749;1643;1
164;1299;1
256;4046;1
1162;3940;1
18;303;3
23;3830;1
490;4312;1
853;3819;1
2921;4325;1
236;1699;2
386;557;2
370;1788;1
282;618;1
372;1042;1
18;96;2
1013;2223;1
3371;4456;1
1047;4150;1
50;1981;1
53;618;2
52;694;1
218;730;5
139;538;1
300;1476;3
20;1391;2
129;3284;1
118;802;3
89;728;9
1805;2053;1
703;1147;1
286;633;3
330;357;1
397;4440;1
2603;3592;3
20;3336;1
89;3715;1
212;4080;1
477;3784;1
1230;1854;1
2586;2589;9
665;1990;1
855;2455;1
16;2710;1
107;635;1
797;3486;1
296;3125;1
2126;2668;1
819;855;1
853;2983;2
115;3742;1
200;3757;1
28;3287;1
72;2042;4
644;1628;1
270;282;3
153;2804;1
153;1032;1
260;468;1
1805;4567;1
20;2176;1
14;2426;1
1805;2580;2
1013;2179;1
31;1034;1
115;2645;1
20;1069;1
33;4165;2
1185;2129;1
26;3717;1
132;3510;4
181;1371;1
316;1706;1
1805;2089;1
115;564;1
159;2237;1
162;2419;1
36;100;1
42;2652;1
36;203;2
259;1580;2
397;4557;1
28;1195;1
853;924;1
2189;3067;1
36;346;6
76;671;1
10;2729;1
36;425;1
212;1944;2
236;1168;5
286;3724;1
1113;2814;1
1013;3841;1
46;2740;2
2862;2957;1
36;3673;1
99;275;7
1218;1305;1
28;1805;1
139;3692;1
286;1773;1
164;684;1
8;432;1
18;25;10
217;3879;1
162;1100;1
18;2388;1
153;695;1
1521;1692;1
352;529;2
116;1578;2
42;3368;1
594;749;3
726;1302;1
1890;2165;1
76;160;2
141;144;139
236;274;2
224;330;2
428;1724;6
2228;2970;1
2455;2533;10
1013;1015;1
247;1047;1
286;2205;1
12;1918;2
55;236;1
202;352;1
784;4339;2
153;156;1
84;1456;1
28;804;3
1318;1319;3
14;883;1
405;749;1
2435;4467;1
16;883;1
1692;1715;12
153;1642;1
53;240;2
28;658;1
16;898;1
1230;1761;1
600;704;1
749;1781;2
51;1587;3
316;2692;1
84;3392;1
236;2871;1
14;2294;1
901;2118;1
225;879;6
1324;4596;1
247;3642;1
101;2858;1
475;739;2
841;1986;1
597;3260;1
779;4483;1
115;3301;2
80;160;1
352;864;1
428;1017;1
891;2413;2
291;735;3
735;2484;3
20;2351;3
1626;1890;1
42;3102;1
326;327;3
221;691;1
1534;4372;1
421;1805;1
14;2636;2
52;723;1
2844;3879;1
236;1916;2
298;1795;1
702;1805;9
247;4520;1
76;870;1
716;2181;1
14;3743;1
1805;2272;1
530;4589;2
1126;1127;5
300;987;1
775;4338;1
2862;3105;1
1023;1805;1
154;176;1
242;663;1
236;2496;1
141;3151;6
610;1964;1
16;3463;1
1448;1592;1
1334;1805;1
42;2727;1
84;4287;1
1805;1936;1
200;3540;1
221;2871;1
20;1006;1
236;2677;3
118;1197;8
285;286;3
3566;3993;4
330;1209;1
1805;1906;5
100;259;2
20;1120;1
749;1642;4
52;430;13
240;1670;1
139;4369;1
2126;3103;1
76;1983;1
8;667;1
50;1142;1
735;1609;1
23;2013;1
316;585;1
129;152;2
490;4313;1
530;2279;1
330;4309;1
853;3818;1
300;2334;1
2921;4324;1
2862;2868;1
477;4275;1
31;1267;1
3371;4570;1
1013;2222;1
99;1954;3
3371;4459;2
2299;3942;1
218;552;1
23;385;12
28;424;2
13;60;2
42;3552;1
23;103;1
2746;3832;1
779;1201;3
1462;2985;2
46;47;10
13;286;1
1407;1598;1
236;745;1
115;968;1
618;3725;1
164;2029;1
2144;2639;1
101;263;5
132;2585;1
259;3133;1
591;2032;1
28;1382;1
493;494;1
853;4353;1
236;2649;3
81;244;4
89;3081;2
28;2132;1
236;3048;1
200;3758;1
10;11;1
1162;2259;1
157;1805;13
28;1723;1
72;2043;5
855;2635;1
108;632;5
240;384;1
296;1958;3
2913;3659;1
3524;3525;1
300;1893;4
434;435;1
330;736;1
319;552;3
397;398;11
115;1401;1
1218;2334;1
160;286;4
164;510;2
1162;3401;1
44;852;1
1622;1623;1
2913;3319;2
1185;2128;1
18;871;1
2252;3083;1
2575;4435;2
28;2136;1
236;303;2
316;1707;1
36;3375;1
1248;2450;1
283;2058;1
236;702;2
224;286;1
24;1162;1
212;1627;7
159;2236;1
735;1289;1
286;2097;1
28;2541;1
42;2653;1
76;3317;1
3870;3937;1
1324;4187;1
212;3605;4
28;2588;1
1162;4079;1
20;3484;1
105;4024;1
8;4559;1
132;2557;1
164;1767;1
879;3252;1
559;990;1
236;1169;1
60;3163;1
855;891;1
124;338;1
20;21;18
352;2626;1
530;678;5
300;1684;1
161;2774;1
779;4361;1
36;3674;1
286;3390;1
1185;3499;1
879;1841;2
164;1805;1
612;855;1
1805;2726;4
116;4042;1
1102;2095;1
153;1428;1
300;1865;1
42;4540;1
164;572;1
581;3193;1
853;4516;1
259;401;1
20;1218;1
200;1067;1
428;4492;1
1324;4006;3
23;457;1
18;843;2
212;1945;1
115;610;1
33;4262;1
735;2071;1
212;2976;1
1013;3470;1
1805;2124;1
200;1432;1
153;2526;1
1162;1290;1
1013;1014;10
36;3538;1
597;759;1
42;4466;2
84;1457;1
28;805;5
296;629;1
183;1580;1
18;1182;2
775;916;2
600;2406;4
2455;2984;1
490;4398;1
101;160;1
2785;2791;1
1371;1372;1
99;4155;1
3788;4035;3
316;2693;1
4069;4070;3
105;182;1
256;4068;1
20;2821;12
1805;2967;3
550;2913;1
936;2581;1
2509;4198;1
2575;4434;1
326;1196;5
100;221;3
28;3646;1
68;627;1
597;3259;1
386;1248;1
2343;4208;2
4090;4091;1
296;2100;2
46;1620;1
1725;1744;1
14;502;1
221;690;1
330;2663;1
3482;3584;3
55;2934;1
1805;1829;1
3512;3779;1
1462;3572;1
716;2182;1
1622;1806;1
51;1805;9
256;4346;1
304;415;2
775;2969;1
50;968;1
557;3796;1
490;4495;1
16;193;1
236;932;1
1467;3330;1
135;200;8
563;565;1
1448;1593;1
23;36;3
84;3052;1
936;1389;1
42;2724;3
76;672;1
183;3048;1
153;2038;1
1162;2477;2
173;4367;2
621;2418;1
184;735;4
99;588;1
8;668;1
2670;2844;1
735;1608;11
20;291;2
207;867;1
28;1910;2
853;3817;1
99;3603;1
2862;2869;1
515;4133;1
16;3825;1
1316;3178;1
20;3585;1
943;3657;1
529;1805;1
18;94;1
1013;2221;3
164;555;2
51;218;1
20;1035;6
775;2617;1
36;1402;2
557;968;3
530;3752;1
36;1481;1
247;1291;1
33;1349;13
132;1695;1
1462;2623;1
286;748;1
696;4167;1
2934;3290;1
227;616;1
212;3868;1
735;3959;3
319;1789;2
749;932;1
18;1476;3
99;1119;1
490;3348;1
319;1602;1
779;3283;1
1805;3958;1
1692;2065;1
775;847;1
612;1139;3
28;4116;1
105;108;2
54;55;2
612;613;3
12;211;4
612;756;10
84;1455;3
200;3759;2
129;748;1
2228;2229;1
1241;4376;1
236;2936;1
28;1716;2
129;575;1
36;3623;1
16;3647;1
420;653;1
242;243;4
618;1210;1
587;749;5
18;160;5
221;3187;2
855;1012;1
1805;2578;1
116;3686;1
236;3388;1
2344;2933;4
2509;2661;1
28;239;1
2509;2806;2
1499;1500;1
20;1293;2
550;665;1
1230;1231;5
260;735;1
1248;2289;1
28;706;4
68;1731;1
42;2650;1
570;1805;1
665;1591;1
76;3141;6
1462;3266;1
23;258;1
46;661;1
20;816;9
775;960;1
3788;4056;4
236;1170;4
8;2739;3
51;779;5
97;3854;1
530;679;6
28;1688;3
76;3013;1
76;1984;1
2862;2963;1
139;3694;1
124;160;1
1185;3498;1
879;1840;1
164;1035;1
506;2196;3
221;3159;1
300;1866;1
52;987;2
1805;4315;1
89;90;6
259;400;1
1462;1922;1
23;456;1
178;179;4
557;3785;1
141;142;27
1613;2084;2
51;1697;2
1805;2123;1
200;4460;2
530;1745;1
4498;4499;1
28;806;1
828;2609;1
236;2413;5
2411;2913;2
19;1462;11
557;2334;1
26;1510;4
1571;1572;1
141;3339;1
690;749;3
31;423;1
173;4505;1
18;1070;1
160;735;1
316;2694;1
2950;3742;1
105;181;1
89;1752;13
42;2162;1
703;855;1
97;2690;2
1692;4476;1
2509;4197;1
42;448;1
164;1071;2
52;4583;1
36;619;1
20;1136;10
1805;4176;1
3512;3780;1
1162;3342;3
33;1720;1
115;3004;1
148;771;2
36;2597;1
132;1700;1
1805;2078;1
148;754;1
533;1132;1
298;1059;1
469;4173;1
948;3405;2
116;349;2
1324;4171;2
853;4248;1
5;50;1
2299;3558;1
55;99;1
996;2391;1
612;1112;1
563;564;1
173;2368;1
42;2725;2
212;3773;1
612;2326;1
735;3235;1
50;643;1
13;1805;2
173;4366;1
1012;4277;1
8;2379;2
236;2950;1
621;2417;1
28;708;1
1162;3040;1
42;2134;1
46;1098;1
36;1872;1
557;2758;2
236;3236;1
54;2232;26
853;3816;1
203;251;2
807;2347;1
1908;3121;1
994;2126;1
1805;2797;1
428;4256;1
16;830;2
18;95;15
557;1162;1
735;2474;1
513;3928;4
1462;3255;2
853;4027;1
775;2616;1
1692;3423;1
1622;3941;1
1805;3909;1
95;236;1
31;1440;1
115;3391;1
2509;2722;2
101;1008;2
415;2126;2
1185;2107;1
33;1348;5
28;473;1
1506;2408;1
12;2329;1
2153;2154;2
1316;2041;3
879;935;38
779;2639;2
101;2847;1
323;1325;1
18;1477;2
841;2447;2
99;1118;7
1013;3175;3
20;3578;1
775;846;5
185;986;1
183;291;1
1805;1970;20
855;2049;1
426;3935;1
160;1515;1
426;2074;1
644;855;1
644;4192;1
362;612;1
298;927;1
2509;4141;1
515;2046;1
44;45;2
3371;4122;1
99;329;2
84;1779;2
51;490;3
352;2647;2
2862;2902;1
42;43;1
1060;1061;1
51;283;11
1805;2577;3
23;2549;2
99;1907;1
1462;4349;1
23;1729;1
164;3234;1
428;2799;5
76;3917;1
286;924;4
160;272;3
164;504;5
439;3750;1
1314;4126;2
89;3060;2
2455;2864;1
3345;3522;2
116;358;2
28;684;1
859;1462;1
1341;2494;1
28;707;1
484;3981;1
42;2651;1
23;1292;1
1218;3068;1
76;3142;1
25;236;1
559;817;2
99;856;18
2785;4536;1
68;69;44
36;1595;1
4430;4431;1
300;368;1
767;1534;3
14;1666;1
182;1908;1
162;224;1
2455;2773;1
256;357;3
176;396;1
779;2087;2
2862;2960;1
218;1879;1
55;1185;1
600;1295;1
52;53;1
20;1919;10
221;906;1
868;1627;1
221;3158;1
14;2389;1
2635;3704;1
855;923;2
513;606;3
42;158;1
16;1661;1
1462;1923;1
187;2433;1
402;409;1
23;459;1
227;372;2
319;2180;1
74;481;4
5;1185;2
115;1035;1
251;4087;1
474;1462;1
200;4382;1
48;3407;1
105;1394;1
1805;2122;1
557;1686;1
115;1321;1
12;13;2
300;3545;1
775;3012;1
853;3382;1
52;191;1
621;1696;1
236;578;1
810;1009;1
735;1392;12
200;618;1
20;870;1
775;918;1
1290;1462;1
31;422;3
2138;2139;2
97;3866;1
139;4033;1
703;705;1
50;3075;1
176;330;1
84;3395;3
2852;2853;8
1162;2054;1
42;2163;1
259;1481;2
150;151;5
164;926;1
236;1429;1
55;212;2
14;2148;1
909;1040;1
42;449;1
1927;1928;1
909;1121;1
779;4484;1
218;2010;1
46;1400;3
212;608;1
212;2876;2
557;4560;1
1805;2760;1
2299;4421;1
38;236;2
28;50;3
490;2789;1
557;3577;1
109;2533;1
319;1206;1
1241;3304;1
18;907;2
176;1311;1
1536;1552;1
60;225;3
33;1727;4
236;482;1
36;2598;1
950;2934;1
52;1184;4
786;1805;1
14;3698;1
277;322;2
1324;4164;1
270;1077;2
225;413;5
236;535;2
1805;4095;1
618;1803;1
726;3414;1
909;910;12
1805;3920;2
236;2797;1
28;1262;2
299;1368;1
28;954;3
28;4370;1
23;1445;1
16;993;1
607;855;1
141;4254;2
330;2557;1
105;2515;1
841;1447;3
42;4264;1
173;4365;1
1805;1903;9
415;3249;1
84;3431;1
42;2135;1
139;3787;2
164;946;1
36;1873;1
95;1462;2
1760;2344;4
164;2719;1
236;1288;3
105;2691;1
256;2272;1
286;1576;1
665;3213;1
1908;3122;2
84;1615;1
1241;1302;1
14;182;1
1805;2796;2
490;2777;1
1908;1917;1
244;4316;5
18;92;1
51;115;4
853;4026;1
775;2619;1
3371;4058;1
300;1073;3
1805;2399;2
2509;2721;7
89;3275;3
749;751;2
735;812;11
115;687;2
28;474;1
130;2738;1
51;3524;4
101;2846;1
1462;1463;6
225;270;1
286;287;1
135;352;3
296;3355;1
244;1777;1
141;2989;1
185;985;2
36;2157;3
20;2666;1
20;4013;1
1248;3535;1
212;1141;1
109;3187;1
286;2011;1
28;3071;1
1104;1162;1
97;3116;3
53;101;1
535;1185;2
2951;2952;1
72;3079;3
513;855;6
164;805;1
42;3949;1
4069;4174;1
618;1208;2
2862;2903;1
1060;1062;1
28;1995;1
173;1262;1
535;1012;1
97;4513;3
1103;1805;3
958;959;2
286;925;1
139;3072;9
161;968;1
20;1065;11
36;1432;1
779;780;2
115;4274;1
244;4566;1
309;3645;1
1850;2984;1
115;1503;1
89;3152;1
42;1678;1
156;1230;1
428;1899;1
735;1290;4
55;132;1
4441;4442;1
44;411;2
173;2533;6
28;2536;1
775;796;1
283;1122;2
1013;3194;1
1013;4075;1
55;475;1
1234;1248;1
300;2830;2
535;1398;1
168;300;1
28;1524;1
14;1667;1
1710;1711;3
36;1675;1
530;677;3
529;1534;1
207;2795;1
879;2452;1
221;3097;1
600;1377;1
943;2035;1
300;1687;1
16;1202;1
247;3666;1
1709;2392;1
513;3291;1
300;1574;3
879;1842;1
696;914;7
300;1860;1
51;374;1
2299;3781;1
2189;2276;3
20;1118;7
996;3099;1
153;2919;1
2509;2567;6
162;3055;2
1462;1920;2
164;285;2
2186;2213;2
116;1590;1
23;458;3
1462;2779;1
1890;2206;1
131;286;19
20;690;1
784;785;1
807;2695;1
557;4413;1
1162;1289;3
44;488;1
775;3015;1
1162;1432;1
397;4508;1
286;452;1
270;969;5
298;303;2
23;1023;1
18;4272;2
28;855;2
132;2637;1
749;1376;1
618;4066;1
162;432;1
97;3865;1
28;2817;1
1126;2893;1
277;2016;1
20;2705;2
401;912;1
619;1805;1
118;1268;1
1162;2055;1
42;2160;8
725;3345;2
665;2966;1
2509;3094;1
76;2607;1
28;1790;1
1534;2899;1
173;1300;1
352;3317;1
270;3609;2
212;609;1
218;2122;1
28;51;9
89;2423;1
164;595;1
200;2624;1
256;2514;1
1012;1227;4
490;2421;1
160;490;1
3512;3671;1
131;187;1
124;4531;1
33;1741;5
644;2327;5
2913;4371;1
749;3038;1
13;20;7
36;2599;1
76;3700;1
735;1452;3
18;573;14
1324;3956;1
153;2062;2
23;204;2
28;614;1
1805;2157;5
259;3734;1
36;184;2
557;2142;1
1462;2275;2
397;3233;1
959;1126;1
286;288;1
18;1390;1
160;2635;1
28;1562;1
1805;3744;1
23;1444;1
665;1950;2
853;1525;2
1775;1890;1
42;2354;2
55;259;2
715;2580;1
20;2758;1
105;2514;1
2785;2816;3
1805;3458;1
16;3880;1
36;1874;1
23;1896;1
5;173;1
1012;3278;1
16;1801;1
2862;2872;2
247;2360;1
428;4258;1
618;787;1
439;2307;1
18;93;1
352;1023;1
853;4025;1
775;2618;1
511;2757;1
160;1748;7
665;1421;1
36;3383;1
1535;2264;1
948;3016;2
2848;4232;1
207;1883;2
129;293;2
42;3086;1
101;2845;2
665;2544;2
716;1326;1
2299;3460;2
212;4517;1
749;4490;1
612;1150;2
185;984;3
775;2349;1
31;3661;1
749;1320;1
1805;3669;1
282;703;1
28;1425;1
428;3975;1
420;1115;1
115;3685;2
185;186;1
236;3044;1
2299;2300;2
4150;4305;1
8;4228;1
153;3549;1
236;1103;1
20;236;3
1462;3770;1
259;1021;1
316;762;2
14;2141;1
912;913;1
18;268;1
420;648;1
55;2807;1
300;2002;1
853;4354;1
55;1341;1
115;2731;2
76;1635;1
240;241;2
36;1290;1
259;441;1
28;234;1
123;300;1
124;1603;2
820;1692;1
316;1703;5
298;1110;1
23;135;12
490;918;2
160;1647;1
4332;4333;3
161;4051;1
42;2761;1
129;257;1
20;4277;1
28;2537;1
853;4190;1
23;1294;1
3566;3720;1
2509;3774;2
298;573;1
42;2314;1
236;1165;1
236;3001;1
20;823;1
141;3526;1
600;664;1
484;2499;10
1318;3687;5
221;3329;1
236;2911;1
1462;3718;1
16;1203;2
853;4474;1
84;4290;1
607;1735;3
182;1462;6
1805;2611;3
259;260;3
14;2762;1
72;1495;4
8;147;3
484;3480;1
1139;1248;1
1462;1921;1
640;3343;1
28;2057;1
236;504;1
515;3293;2
60;61;1
557;4412;1
300;3140;2
2455;2528;1
214;2805;1
428;1864;1
300;2735;1
775;3014;1
227;818;2
286;453;5
164;1825;1
1248;2063;1
893;894;1
716;793;1
18;1178;2
936;937;1
84;623;1
618;4067;1
256;1974;1
97;3864;3
775;2421;1
298;529;1
153;306;1
28;1450;1
42;1596;1
735;3289;1
4123;4124;1
118;1269;1
1162;2052;1
42;2161;1
99;596;1
5;1805;1
51;665;1
76;1936;1
665;2965;1
28;1791;1
105;468;1
309;4521;1
52;245;1
13;1113;1
1013;1886;2
1470;2104;1
207;824;6
300;1946;1
97;3026;1
632;1069;1
141;1771;1
36;519;3
20;1932;1
218;2298;1
513;3953;1
1805;2472;1
97;896;1
309;3922;1
173;555;3
517;2718;1
162;1244;1
33;1740;2
1536;1554;1
236;3621;1
76;3701;1
84;88;1
2785;4104;2
185;1287;1
19;853;2
484;3169;1
330;331;1
33;2768;2
749;1168;1
161;1775;1
236;529;1
879;4282;1
286;289;1
28;2513;1
330;1905;1
1805;3918;1
36;415;6
716;908;1
236;838;3
716;1144;1
490;2583;1
20;2759;1
84;1941;1
490;3312;1
160;621;1
97;3078;1
116;562;7
581;1340;1
14;1106;2
36;1875;1
20;184;1
945;1185;1
195;2590;1
36;1954;4
1807;3010;1
2862;2873;1
311;989;1
3371;4160;2
797;798;3
618;897;1
51;256;5
52;1007;3
85;97;1
195;993;1
218;386;2
101;4110;1
352;1008;2
99;157;4
20;1047;2
116;117;3
115;3328;1
484;1391;1
164;165;1
236;2284;1
36;3376;1
173;305;1
841;2091;1
18;3018;1
129;292;1
42;3087;1
1324;3502;1
105;2050;6
52;1867;2
735;1078;2
212;4518;1
28;1228;1
319;479;5
84;560;1
60;3057;1
76;704;1
23;1483;1
236;2759;2
1218;2562;1
46;4244;1
129;224;1
247;1566;1
3179;4203;1
748;1805;1
115;3684;1
244;1792;2
55;300;1
635;689;1
644;4195;1
236;1096;4
20;237;1
178;4374;3
1662;3542;1
20;348;1
316;763;1
18;269;1
2679;3325;1
420;649;1
2746;2819;1
33;1864;2
153;1411;1
1805;2574;1
23;1730;1
515;4242;1
212;265;1
160;420;1
352;924;1
853;4407;1
136;397;1
139;3074;2
247;4348;1
20;1067;4
20;3847;1
153;590;1
28;282;1
265;632;1
28;2086;1
236;405;5
18;864;3
207;308;38
28;2133;1
164;217;1
3214;3285;1
218;2631;1
370;1246;1
28;568;2
665;4509;1
2848;4245;1
1148;1436;1
600;4034;1
129;256;2
218;2498;1
749;1112;2
107;319;1
236;601;3
296;3434;1
853;2802;1
55;420;1
28;2696;1
132;2554;1
426;2267;1
20;2568;1
879;3251;1
319;320;1
236;1166;1
129;204;1
1805;1828;1
60;1468;1
14;1665;4
298;2080;1
203;557;1
621;2358;1
1805;3382;2
390;2472;1
530;2310;1
330;2923;1
2022;2023;1
212;2019;1
141;1508;15
4;4548;1
164;859;1
1657;1658;1
1680;2843;1
2509;3410;3
1012;1491;1
607;1734;1
477;1225;2
581;1959;1
1113;1305;3
859;1805;2
3806;3807;2
923;1600;2
51;233;8
52;854;1
236;4493;1
286;1023;1
139;3118;3
182;828;1
50;482;2
3643;3788;1
99;3563;1
841;2066;1
76;161;1
18;727;1
97;182;1
212;225;1
139;2717;4
76;1092;1
238;239;4
1162;3901;1
20;3534;4
141;2914;1
1044;1045;2
936;938;1
370;474;1
28;1332;5
749;1374;1
618;4064;1
326;741;3
153;305;2
195;2422;1
161;2106;1
1162;2053;2
316;1373;5
16;3933;1
28;3349;1
76;77;2
352;2885;1
853;1880;1
513;4523;1
214;215;2
1013;1885;1
130;4547;1
200;688;1
511;512;1
352;3319;1
160;2362;1
300;1947;2
319;4433;1
1692;3246;1
372;2769;2
693;1805;1
20;1933;6
2509;2648;1
36;4008;1
2782;3383;1
1805;2471;1
309;3921;1
36;3214;2
20;1362;1
1679;1680;1
300;578;1
374;375;1
2159;2455;1
13;99;1
74;147;1
115;1433;1
28;2316;1
424;1805;1
256;4462;1
557;2140;1
1324;3531;3
716;826;1
162;752;1
23;541;1
51;3128;3
99;1982;1
36;408;1
28;1304;1
14;1375;2
25;173;4
775;3756;1
735;3247;3
1805;1819;1
259;4381;1
1100;1239;1
20;3728;1
286;1289;5
212;3487;3
221;1035;2
1692;3790;5
2126;3394;1
581;1339;1
286;1805;1
1148;3877;1
2934;2939;3
28;1756;2
218;1802;1
28;1907;1
891;3617;1
2862;2878;1
6;1898;1
515;4136;2
559;1350;1
316;933;1
51;176;12
115;3557;1
3482;3582;3
99;156;9
1805;4127;1
1126;1352;1
115;3331;1
618;1686;1
52;1296;5
2153;3680;1
286;1146;2
18;652;1
42;3562;1
256;3129;2
132;1668;1
841;2090;3
490;2200;1
8;3313;1
18;3019;1
1697;1761;1
36;3456;1
68;425;1
413;1054;1
97;3739;2
131;853;1
14;4219;1
33;967;1
2189;2943;3
23;2788;2
225;259;1
855;3595;1
42;4550;2
2848;4551;1
330;1938;1
631;828;1
28;1229;1
84;561;2
1;3;21
612;915;1
84;1236;5
1506;1507;1
99;945;3
28;1427;1
105;224;1
244;1793;14
236;3046;1
1462;2313;2
1218;4121;2
84;2642;1
164;1342;1
51;2364;8
99;2470;1
187;2892;1
1368;1370;1
490;3063;1
286;1784;1
119;2466;1
513;4285;1
2934;4286;1
170;1805;1
286;1434;1
1805;2573;4
648;2455;1
1622;3771;1
54;2490;14
477;1301;2
20;1093;1
236;4024;1
76;2101;1
84;332;1
1462;3223;3
50;364;9
3512;3601;1
18;865;1
89;3064;1
214;921;1
3345;3381;2
370;1247;1
665;2224;1
20;1529;1
1148;1437;2
1506;2312;1
300;3569;1
42;2996;4
996;2613;1
89;4118;1
84;1435;2
72;855;1
20;735;2
621;4112;1
14;1525;5
853;2801;1
68;1631;1
1;254;6
212;3714;1
909;1123;1
28;2697;1
1462;2507;1
644;4386;1
236;1167;1
716;1153;1
153;1969;1
1805;1827;4
2126;2643;2
115;3651;1
1805;2708;1
212;3543;1
1890;4180;1
225;836;1
3371;3517;7
752;879;68
2862;2964;1
1185;3501;1
53;247;1
160;227;1
126;946;1
55;1426;2
116;4048;2
1230;2681;1
2782;3785;1
164;570;1
352;4097;1
207;2265;1
23;455;1
1185;2166;3
499;600;1
618;1774;1
535;1805;1
1162;3145;1
807;3412;1
218;1391;3
749;3565;1
557;4410;3
76;1093;1
1324;4188;1
115;4446;1
36;135;10
28;1047;1
1807;2273;1
996;4172;1
352;4095;1
42;855;1
159;232;2
132;2632;1
36;357;17
76;698;1
936;939;1
490;3576;2
194;557;3
618;4065;1
853;2566;1
236;2568;2
161;2105;2
28;2844;1
52;465;1
20;55;1
115;371;1
275;1807;1
97;3862;2
33;965;4
130;1161;2
236;1312;2
42;461;1
1113;1114;1
162;1302;1
352;3208;1
1255;1256;1
408;1162;1
115;1598;1
1805;2756;1
319;4432;1
870;1805;4
3482;3483;5
1012;1238;3
14;504;1
6;1080;1
160;3976;1
891;892;1
160;513;1
735;935;1
352;564;1
139;758;1
28;2159;1
44;681;1
20;4105;1
1243;3870;1
44;2211;1
2126;2140;1
726;1047;1
256;4463;1
853;1168;1
173;2346;4
23;540;1
46;359;2
28;950;2
1241;4402;1
116;3335;3
42;2734;3
775;2250;1
116;239;7
46;4504;1
1558;1559;1
3788;3982;1
42;2353;1
372;2140;1
127;1470;7
20;100;1
28;1599;1
853;3104;1
200;352;2
218;1769;1
256;4038;1
607;2861;1
581;1338;1
475;2269;1
20;1646;3
187;3575;1
879;2514;1
97;1226;3
16;3672;1
891;3616;10
20;408;10
853;1800;1
270;1804;2
1850;1924;1
286;4103;2
316;934;7
118;4054;1
218;2268;1
3482;3583;2
1499;3332;1
775;2615;2
618;3120;1
23;2851;3
164;2572;1
618;1687;2
195;3450;1
236;690;13
555;1162;1
591;1300;3
323;1266;1
3285;3462;1
1019;1462;1
139;496;1
51;1692;3
555;936;2
33;966;1
105;1503;3
2189;2942;1
89;4522;1
28;875;1
23;1364;3
477;492;11
159;160;1
535;1785;1
1;2;51
588;1218;1
775;2350;1
2466;4211;2
330;2442;1
372;373;2
31;3662;1
55;352;1
116;882;2
357;1692;5
490;3139;1
286;3736;1
28;3256;1
236;3047;1
214;306;1
352;1591;1
105;2797;1
212;855;1
6;1589;1
28;3533;1
4069;4170;2
18;154;5
784;4442;1
54;2491;29
247;248;1
221;4331;1
36;1333;1
1361;2126;1
76;2102;1
490;2376;1
1805;4098;2
3512;3602;2
6;1024;1
44;851;1
3996;4296;1
136;286;1
735;1023;1
735;2219;1
173;386;2
878;909;3
298;1109;2
1230;2682;1
18;19;12
12;1731;1
775;2894;1
162;2443;1
20;3397;3
89;4117;1
1185;4377;1
1082;1083;1
621;4111;1
162;2157;1
909;978;1
244;3845;1
1462;3267;1
1185;1187;3
468;1781;1
204;1241;2
716;839;1
256;3825;2
28;1345;1
135;415;1
20;941;9
236;1055;1
176;306;1
428;2293;6
703;2258;1
204;352;1
352;1747;1
3371;3516;5
28;1686;1
300;1683;1
618;658;1
55;923;7
1185;3500;1
3345;3754;1
129;1131;1
256;567;8
581;1957;8
247;2557;2
18;2365;1
207;583;13
185;2516;1
513;3946;2
154;1805;4
1725;1733;1
31;1089;1
145;146;3
20;1114;2
36;1321;1
1536;1545;1
23;454;1
1499;3325;1
236;507;1
716;2201;1
212;1952;1
242;2591;1
236;266;2
557;4409;1
1013;3479;1
76;1094;1
1927;3493;1
1324;4189;1
397;4585;1
559;2545;1
618;3679;1
28;2687;3
716;788;2
18;1177;1
819;4144;1
2252;3705;1
600;601;1
161;1939;2
665;2767;4
879;2565;3
735;4422;1
1162;2480;1
115;3761;1
475;855;1
853;2919;1
1162;2051;1
665;3049;3
6;7;2
428;429;6
115;1763;1
779;4394;1
236;1313;1
99;2115;2
684;1805;1
46;1298;2
4457;4458;1
36;1048;1
221;3076;1
270;3613;1
749;2454;1
221;4145;1
20;1816;1
352;995;1
50;2535;2
62;378;10
28;3914;1
200;1023;2
1470;4424;1
36;3129;1
20;2470;2
557;4411;1
162;1243;2
1914;2913;1
16;2120;2
44;682;1
256;2915;1
23;200;1
361;2455;2
28;610;1
28;2318;2
352;386;1
1513;1531;6
28;657;2
101;3045;1
468;472;1
853;2390;1
115;2129;1
457;841;1
490;3387;1
397;1417;1
330;1916;1
330;564;4
23;543;14
484;485;1
84;3051;1
775;2245;2
621;2633;1
300;2883;1
3788;3983;6
1589;3546;1
18;1036;1
84;4010;1
1290;1318;2
124;290;3
1162;2132;3
316;2720;1
115;417;1
97;3852;1
256;4039;1
581;1337;1
417;1692;1
173;3966;1
2455;2584;2
735;4060;1
388;807;2
4;855;1
29;164;1
247;3719;1
28;2044;1
212;641;1
164;748;3
236;1579;1
36;550;2
1692;2839;1
221;2826;1
3482;3580;2
89;2752;2
1805;4125;1
1491;2455;2
153;631;1
170;703;1
883;923;1
115;3333;1
76;3589;1
36;3244;1
856;1805;9
330;2319;1
300;544;1
1248;1746;3
300;3192;1
259;3689;1
3285;3461;1
515;3495;1
300;951;2
28;1065;1
126;1820;1
286;497;2
2082;2083;1
2189;2941;1
1185;4572;1
296;3441;1
2424;4455;1
948;949;4
276;286;1
84;1383;3
3788;3932;1
44;1845;1
3345;3697;1
464;1673;1
247;3254;1
1218;2561;1
735;2001;3
370;371;1
245;533;1
4113;4114;1
2216;2217;1
909;3205;1
3345;3644;3
996;1796;8
1502;2807;1
1534;2844;1
101;1876;3
23;357;2
864;1534;1
272;4074;1
828;1125;1
161;3404;1
529;3996;1
490;611;1
784;4443;1
236;3492;5
1241;1397;1
52;974;1
20;3628;1
221;4330;1
185;1152;2
115;3523;1
76;3915;1
170;256;1
122;249;1
716;1851;1
214;4465;1
212;1822;1
1805;2430;2
244;2287;1
735;2218;1
1013;2909;1
23;131;1
212;2468;2
236;694;3
1009;1010;2
1506;2310;4
256;4281;2
1324;4218;1
735;1393;4
236;709;1
936;2503;1
2472;3356;3
943;944;1
749;1109;2
68;1117;1
735;1158;9
853;4186;1
99;1120;1
775;795;2
853;931;2
233;234;1
31;59;1
270;865;2
126;127;25
735;1047;7
557;2355;1
932;2274;1
84;1403;7
1185;1186;4
468;1782;1
309;310;1
2936;3482;1
749;1288;3
3788;4055;2
1162;3785;1
171;330;1
559;855;1
51;1060;1
600;4292;1
20;29;1
160;936;1
176;386;1
696;697;8
160;2466;1
2628;2678;1
428;2324;3
84;1565;1
819;4002;1
129;1130;1
557;1066;1
784;4423;1
236;3464;1
2189;2190;2
350;2455;1
16;1211;2
185;3591;1
632;856;2
28;91;15
139;3282;3
1218;3821;1
402;403;1
1536;1546;1
28;377;2
236;500;6
164;361;1
716;2202;1
2509;2916;3
28;488;2
89;3034;1
84;2332;1
1052;2459;1
162;1731;1
735;2079;1
417;716;1
1013;3478;1
76;1095;1
296;863;8
749;3452;1
198;1462;1
115;4384;1
20;3418;1
3263;3270;1
1480;2848;1
735;1274;1
52;2546;1
236;975;1
389;1805;1
54;71;7
1678;2862;1
51;2603;5
160;726;1
233;992;1
607;1234;1
735;3269;2
224;749;1
1012;1918;1
18;1995;2
2126;3080;1
490;4552;1
372;4148;4
716;729;1
1805;3451;1
212;3172;1
20;1595;5
153;1118;2
20;2147;1
20;3338;2
1248;3161;1
3205;3788;2
1805;4485;2
1162;3061;1
20;390;4
236;3165;1
62;63;13
607;609;1
386;607;1
20;1005;4
236;1623;2
18;2334;1
153;745;1
1012;1232;2
84;279;1
238;536;3
20;2471;8
33;1728;2
36;1501;1
200;2851;1
353;355;1
1148;4406;1
2586;2587;1
841;2099;2
300;3221;1
221;1954;1
557;1780;2
1324;4162;1
853;2389;1
1805;4089;1
195;1003;1
1019;1162;1
28;769;1
68;342;3
20;3565;1
23;542;1
28;1252;1
2603;3524;2
31;3783;1
3788;3897;9
84;4288;1
23;1443;1
55;501;1
853;2584;1
55;286;1
185;2564;1
1162;2133;3
173;4359;2
621;2410;1
1185;1460;8
259;1067;1
1368;1369;3
52;294;1
20;1640;1
3788;3837;2
31;1988;2
176;2037;1
319;857;1
84;4018;1
1805;2709;1
2862;2877;1
207;2508;3
212;642;2
20;1853;1
20;3593;1
3371;4565;1
855;3341;3
97;4511;1
130;572;1
1536;2004;1
4;5;8
221;2825;1
99;3398;1
23;408;1
286;2566;6
36;1521;1
386;1012;1
115;1112;2
618;1685;1
28;417;1
853;2214;1
42;3561;1
20;1160;1
2848;4237;1
130;2700;1
52;3813;1
286;615;6
101;3427;1
139;1951;2
2818;3124;1
101;2840;1
139;3905;1
742;1555;1
20;693;2
853;2923;1
703;1488;9
16;3548;1
1534;1694;1
18;1137;3
253;286;4
212;1139;1
200;3799;1
644;4207;1
1378;1379;3
161;829;1
172;1185;1
3345;3635;8
129;567;1
1013;1889;1
105;2940;1
247;425;1
618;719;1
323;489;1
3371;4115;1
372;858;1
2455;2568;1
581;1279;6
51;352;7
20;3629;1
162;2898;1
221;4329;1
581;3212;2
18;954;1
530;3957;1
490;610;1
74;357;1
2186;2187;17
691;1850;1
513;3630;1
1162;3521;1
1462;4481;1
153;963;1
162;883;1
996;2770;1
1013;2908;1
1506;3732;1
1185;2377;1
1506;2311;1
735;2123;3
16;99;2
124;1052;1
330;1747;1
591;685;2
853;4185;1
621;4109;3
31;58;10
16;82;11
139;2464;2
204;1162;12
3345;4307;1
1013;1281;3
468;4255;1
687;1692;1
101;2671;2
504;2455;1
716;976;1
207;3027;7
18;1109;1
28;1522;2
115;3652;1
28;4175;1
1270;3822;2
1890;4179;1
176;1887;1
749;1978;1
97;1159;1
490;4343;1
690;1448;1
18;365;1
556;749;1
184;236;2
2435;2436;4
4150;4364;1
185;3590;1
735;3674;1
8;9;2
31;1091;1
350;2343;1
1536;1948;2
256;2683;1
3371;3979;1
1536;1547;1
684;1534;3
3136;3231;1
2435;2538;1
735;989;1
1805;3944;1
716;2203;1
42;1610;1
745;853;12
138;1805;3
779;3415;1
236;260;5
42;1757;3
36;3444;1
2934;4403;1
735;1479;1
36;51;2
18;610;1
3029;3030;1
875;1012;2
212;4356;1
20;3419;1
84;1466;5
3402;4506;2
20;2334;1
160;3337;1
716;790;2
23;3250;1
1805;2462;2
97;3859;1
46;552;1
259;436;11
415;4581;1
490;2405;16
51;2504;1
159;3069;1
115;4049;1
44;1459;1
62;3396;1
2464;4119;1
853;1920;3
200;692;1
97;1052;1
74;1915;1
513;514;11
18;224;1
2035;3546;1
48;855;1
52;903;1
1162;2772;1
420;931;1
868;1781;1
1126;1489;1
99;100;3
600;3539;1
484;2822;2
164;424;1
42;3792;1
1324;4076;1
218;3970;1
352;567;2
353;354;1
236;3618;1
1368;1607;1
665;4159;1
139;3039;1
18;676;1
23;3346;1
203;1805;2
1230;3504;1
52;4131;1
370;1250;1
300;973;2
236;767;1
54;3164;2
10;630;1
1324;4163;2
749;1163;2
270;1084;2
557;4524;1
428;1976;2
174;300;1
31;3782;2
749;1453;1
3788;3898;14
311;1654;1
20;769;6
775;2247;3
408;1807;2
1805;1926;1
1697;1797;1
160;644;3
20;4147;1
28;2764;1
809;1145;1
330;2532;1
330;1199;1
240;3093;1
621;2409;4
1227;1232;1
1013;3791;4
1692;3786;1
1218;1461;1
946;996;1
52;295;1
129;554;1
3371;4249;2
84;1904;2
1919;2472;3
28;1871;2
1149;2509;1
99;3610;1
1535;4380;3
352;2913;2
357;1162;4
1185;3803;1
115;1408;1
601;853;2
105;870;1
115;2773;1
311;766;1
236;1972;2
1536;2005;1
1462;4248;1
1805;2503;4
236;3831;2
490;670;18
823;1805;2
735;2241;1
357;735;2
515;3497;1
52;3814;1
16;120;5
236;739;1
224;251;1
330;2116;1
2435;4503;1
101;2823;3
2299;3373;1
23;972;1
195;2183;2
2209;2210;1
1013;3183;1
1162;4081;1
316;2832;1
319;474;5
212;3690;2
618;3989;1
372;3753;1
3788;3934;1
183;315;1
330;2441;1
162;498;1
300;388;1
122;959;1
18;3245;1
2746;2747;1
372;534;1
200;415;1
130;1066;1
312;313;8
20;234;1
105;555;1
1013;1888;1
20;2997;1
691;996;1
76;1828;1
879;1831;1
5;28;4
4400;4401;1
18;153;1
2517;4310;3
2730;2731;3
1725;1726;1
3345;4215;1
477;758;1
33;4549;1
153;672;2
1407;1408;1
1324;4020;1
153;593;1
3996;4299;1
118;123;1
557;3804;1
60;160;1
207;307;6
212;1935;1
28;390;1
28;942;1
224;1185;1
52;524;1
1013;2907;1
1309;1310;1
1506;3733;1
1117;1805;1
1506;2308;1
28;2416;1
124;1053;1
28;2008;1
2575;2612;1
16;3520;1
284;1185;1
612;2657;1
200;1604;1
54;2659;31
236;2306;1
200;3541;1
28;1214;2
1795;2934;1
44;1026;11
139;255;1
251;1139;1
16;3129;1
224;3788;1
3788;3906;1
240;1931;2
3402;4574;1
3546;3556;1
115;3655;1
16;1050;3
110;162;1
2775;2776;1
704;891;1
853;3911;1
749;1977;1
183;1079;3
207;957;2
513;3292;4
23;352;2
3345;3896;1
1432;1805;11
357;1218;1
23;415;1
513;1154;1
139;3399;3
109;205;1
129;200;2
51;236;2
36;4391;1
530;3926;2
18;800;1
164;260;2
1536;1548;1
115;1122;1
559;1993;1
60;3960;1
1673;2317;1
428;1568;7
2848;2859;2
36;3445;2
1805;2114;2
420;467;1
402;3778;1
44;487;1
236;555;1
853;4235;1
3263;3264;1
212;1776;1
2209;4519;1
909;2879;6
300;3424;1
236;954;1
20;767;7
49;153;1
214;701;1
99;567;1
28;1329;1
97;3858;1
244;1861;1
326;2946;8
78;79;3
18;4146;1
300;1432;1
42;1597;1
76;1198;1
2992;2993;1
1462;2394;1
236;1150;1
735;3156;1
635;636;1
